[
  {
    "id": 1,
    "name": "Quasi consectetur nesciunt doloribus.",
    "description": "Sed voluptas quia dolores expedita eius laborum ut qui aspernatur.\nMolestias sapiente pariatur fuga architecto sed.\nAutem repellendus maxime magni qui exercitationem rerum.\nDolorem magnam aut commodi nemo aut quaerat.\nEos sit veniam qui molestiae facere voluptatem.\nFacilis eum atque enim dolor facilis ea ipsum tempora.",
    "createdAt": "2020-06-30T22:22:09.9030937+00:00",
    "finishedAt": "2020-12-10T22:30:51.0724501+00:00",
    "state": 2,
    "projectId": 50,
    "performerId": 42
  },
  {
    "id": 2,
    "name": "Praesentium ut consequatur cumque eveniet suscipit amet officia.",
    "description": "Praesentium autem consequatur magnam et doloribus exercitationem.\nAut animi fuga cupiditate debitis atque nisi consequatur consequatur.\nCupiditate necessitatibus quo eos sequi earum et quis accusamus.",
    "createdAt": "2020-07-01T11:49:39.729857+00:00",
    "finishedAt": "2020-07-19T22:05:30.3390708+00:00",
    "state": 0,
    "projectId": 35,
    "performerId": 2
  },
  {
    "id": 3,
    "name": "Error sit sunt.",
    "description": "Unde dignissimos libero minima quas aliquam.\nConsequuntur aliquid non.\nEligendi quia quidem nihil sit veritatis.",
    "createdAt": "2020-06-30T22:52:33.0645959+00:00",
    "finishedAt": "2020-07-25T07:38:48.6570938+00:00",
    "state": 3,
    "projectId": 63,
    "performerId": 47
  },
  {
    "id": 4,
    "name": "Repellendus itaque expedita est ut.",
    "description": "Nisi esse accusamus dolorem blanditiis porro est dolores.\nExplicabo consequatur rem dignissimos odit praesentium.\nMolestiae facilis et tenetur.\nVoluptas quis sed et ab nulla omnis cupiditate.\nId sed et.",
    "createdAt": "2020-07-01T01:35:10.4670552+00:00",
    "finishedAt": "2020-10-19T05:59:38.2813374+00:00",
    "state": 2,
    "projectId": 93,
    "performerId": 2
  },
  {
    "id": 5,
    "name": "Voluptate neque vel molestiae dolor nulla voluptas voluptas optio.",
    "description": "Rerum totam sit.\nVelit saepe iusto et repellat et consequuntur sit.\nVoluptate officiis pariatur ut ea.\nNeque ut sed voluptatem occaecati.\nDolor velit quaerat molestiae assumenda veritatis voluptatem.",
    "createdAt": "2020-06-30T19:51:23.2733812+00:00",
    "finishedAt": "2021-06-20T02:07:03.7230486+00:00",
    "state": 1,
    "projectId": 81,
    "performerId": 15
  },
  {
    "id": 6,
    "name": "In qui labore omnis voluptas voluptates aspernatur consectetur pariatur.",
    "description": "Sit tenetur nihil laborum qui quia assumenda ratione.\nTempora esse deleniti quia debitis incidunt odio consequatur unde.\nEt quos quam consectetur excepturi sint qui enim autem eaque.\nAdipisci praesentium officia non quod vel rerum nihil.\nVeniam qui incidunt dolorum.\nMolestiae ea officia qui explicabo nulla repellat.",
    "createdAt": "2020-07-01T06:47:59.8929665+00:00",
    "finishedAt": "2020-10-26T16:26:22.2573206+00:00",
    "state": 3,
    "projectId": 10,
    "performerId": 6
  },
  {
    "id": 7,
    "name": "Rerum eum qui ad repudiandae eum laborum ut saepe.",
    "description": "Dolores esse quibusdam aut ut quidem nulla voluptatem.\nQuidem vitae sequi aut qui cumque adipisci quo quam.\nAlias quis voluptatibus.\nQui est aut.\nNihil quia occaecati occaecati totam laudantium.\nNobis cum quae saepe molestiae voluptas id reiciendis a consequuntur.",
    "createdAt": "2020-07-01T13:48:47.7325296+00:00",
    "finishedAt": "2021-06-16T14:09:33.1578012+00:00",
    "state": 1,
    "projectId": 37,
    "performerId": 8
  },
  {
    "id": 8,
    "name": "Et ipsa voluptatem non eos et similique sunt.",
    "description": "Nihil eos minima sed.\nEst et assumenda voluptatem voluptatem illum doloribus.\nVoluptatem enim voluptatem et ut.",
    "createdAt": "2020-07-01T12:54:51.5178046+00:00",
    "finishedAt": "2020-12-29T16:35:36.3138043+00:00",
    "state": 2,
    "projectId": 32,
    "performerId": 27
  },
  {
    "id": 9,
    "name": "Dolorem fugiat impedit nesciunt enim non.",
    "description": "Ipsam quo soluta aut numquam aliquam sint.\nAliquam voluptas error fuga est et quae dolores.",
    "createdAt": "2020-06-30T15:10:02.9778316+00:00",
    "finishedAt": "2020-11-24T08:24:59.079391+00:00",
    "state": 0,
    "projectId": 5,
    "performerId": 11
  },
  {
    "id": 10,
    "name": "Dolorem eos incidunt eum perspiciatis officia ratione est rerum.",
    "description": "Quia quam eveniet quisquam rerum voluptatum laboriosam repudiandae.\nVoluptate fugit esse eveniet ducimus sunt veniam a.\nSed qui et consequatur similique eum velit ipsa voluptates ut.",
    "createdAt": "2020-07-01T11:45:13.8346421+00:00",
    "finishedAt": "2020-10-13T06:22:02.7319262+00:00",
    "state": 2,
    "projectId": 80,
    "performerId": 29
  },
  {
    "id": 11,
    "name": "Sit qui repellendus libero libero.",
    "description": "Quod autem atque similique molestiae dicta quia.\nNulla nulla consequatur at sint enim et similique.\nFugit occaecati enim aut doloremque aliquid vero molestiae iste.\nQuaerat delectus id.",
    "createdAt": "2020-07-01T01:50:46.5659074+00:00",
    "finishedAt": "2020-12-23T07:07:45.7354976+00:00",
    "state": 1,
    "projectId": 88,
    "performerId": 49
  },
  {
    "id": 12,
    "name": "Quidem dolores ut dolores atque sapiente laborum sint.",
    "description": "Optio modi exercitationem quia in omnis alias.\nEsse a voluptatem porro quo voluptatem fuga eos consequatur sit.\nRepellendus labore excepturi eaque impedit minus rerum ut qui eum.\nOdio enim qui corrupti.",
    "createdAt": "2020-07-01T12:38:02.3115268+00:00",
    "finishedAt": "2021-06-17T13:35:49.4661287+00:00",
    "state": 1,
    "projectId": 7,
    "performerId": 50
  },
  {
    "id": 13,
    "name": "Minima vel eum atque perspiciatis laborum officiis cum.",
    "description": "Quas et quae optio ullam amet amet qui voluptatum.\nUt eos neque quia occaecati voluptas voluptatem modi consequatur doloribus.\nVoluptatem occaecati et.\nFuga deserunt nam porro nam nobis deserunt laboriosam asperiores.\nAutem voluptatem cumque amet totam ducimus unde officiis.\nEarum aspernatur qui maxime at voluptatem placeat.",
    "createdAt": "2020-06-30T15:35:39.9513554+00:00",
    "finishedAt": "2021-02-22T02:41:05.7626966+00:00",
    "state": 2,
    "projectId": 87,
    "performerId": 27
  },
  {
    "id": 14,
    "name": "Placeat impedit ullam eveniet corporis quidem doloribus.",
    "description": "Ipsum odio qui in dolorum aperiam ut.\nBlanditiis ratione sapiente quos est quia pariatur.\nSimilique repudiandae hic enim non neque magnam fugiat est.\nExcepturi accusamus non soluta inventore enim doloribus culpa veniam.\nImpedit sunt magni cumque autem.\nQuis suscipit culpa quia voluptatem.",
    "createdAt": "2020-06-30T19:04:36.6175319+00:00",
    "finishedAt": "2020-09-30T21:44:11.4086524+00:00",
    "state": 0,
    "projectId": 32,
    "performerId": 10
  },
  {
    "id": 15,
    "name": "Qui facilis suscipit.",
    "description": "Laborum omnis dicta.\nQuas qui saepe perspiciatis aut asperiores dolor dolore.\nAliquam temporibus repudiandae magnam non cum aut quia eius vel.\nAut aliquid officia ad.",
    "createdAt": "2020-06-30T16:18:15.6037796+00:00",
    "finishedAt": "2021-04-17T04:55:46.3325709+00:00",
    "state": 0,
    "projectId": 67,
    "performerId": 18
  },
  {
    "id": 16,
    "name": "Inventore nulla sit et eius tempore dignissimos ut velit.",
    "description": "Consequatur est sed id nemo fugit illo.\nMinus numquam enim veritatis in sed molestias et.\nQui molestiae rerum voluptatem omnis et.\nImpedit aliquid ducimus et officia mollitia.\nLibero voluptatem et libero.\nSint et architecto quae tenetur est.",
    "createdAt": "2020-07-01T00:15:53.0919868+00:00",
    "finishedAt": "2020-09-30T06:30:46.6071674+00:00",
    "state": 1,
    "projectId": 47,
    "performerId": 15
  },
  {
    "id": 17,
    "name": "Eaque labore officia placeat est error blanditiis quos.",
    "description": "Tenetur libero maiores fugit eos voluptatem id maxime dolores ducimus.\nMaiores omnis quia.\nNobis quas optio iste qui autem odit tempora qui ratione.\nAsperiores ut doloremque odio eius.\nQui porro sed autem ut sed.",
    "createdAt": "2020-07-01T03:42:41.9350754+00:00",
    "finishedAt": "2021-06-29T04:11:51.2040436+00:00",
    "state": 3,
    "projectId": 61,
    "performerId": 22
  },
  {
    "id": 18,
    "name": "Praesentium aut rerum velit ad non.",
    "description": "Occaecati nulla dignissimos deserunt.\nConsequatur doloremque quaerat porro inventore incidunt cumque nulla inventore sed.\nPorro delectus reiciendis occaecati nisi temporibus ea.\nFugiat eligendi quo fugit et nihil.",
    "createdAt": "2020-06-30T15:22:49.9011512+00:00",
    "finishedAt": "2021-04-03T08:23:15.6621481+00:00",
    "state": 1,
    "projectId": 91,
    "performerId": 29
  },
  {
    "id": 19,
    "name": "In odit omnis dolores quo similique placeat ex.",
    "description": "Perspiciatis et laborum et cum recusandae rerum repellat.\nRepudiandae pariatur minus corrupti doloribus omnis ad aut repudiandae.\nNostrum qui assumenda qui eveniet.\nNon in nisi in quasi excepturi commodi et nam.\nUt vitae ea odio aut ut rem nobis inventore aspernatur.\nRepellendus itaque et nostrum recusandae explicabo.",
    "createdAt": "2020-07-01T14:23:52.023681+00:00",
    "finishedAt": "2021-06-23T21:11:12.5081451+00:00",
    "state": 2,
    "projectId": 71,
    "performerId": 31
  },
  {
    "id": 20,
    "name": "Rerum a eum minus repellendus.",
    "description": "Vitae temporibus adipisci similique voluptatum vel facere fugit vitae.\nEt qui qui quidem est odit eos quam.\nNisi natus dolores fugiat consequatur quo est dolorum.\nAccusamus voluptatibus expedita est expedita sapiente vero dolorem aspernatur commodi.\nDolore dolorem asperiores eligendi totam repudiandae ipsum.\nPorro illum quos error voluptatibus maxime totam.",
    "createdAt": "2020-07-01T04:58:39.3816512+00:00",
    "finishedAt": "2020-12-26T02:20:28.7607853+00:00",
    "state": 3,
    "projectId": 25,
    "performerId": 38
  },
  {
    "id": 21,
    "name": "Esse cum et amet cumque voluptates.",
    "description": "Dolor dolor eveniet aut omnis et quos sint.\nOdio commodi qui nam dicta ut dolor.",
    "createdAt": "2020-07-01T12:09:55.6443589+00:00",
    "finishedAt": "2020-07-05T07:02:26.6408182+00:00",
    "state": 3,
    "projectId": 64,
    "performerId": 14
  },
  {
    "id": 22,
    "name": "Autem et cumque vero in et nobis.",
    "description": "Deserunt blanditiis est molestiae nihil itaque et atque temporibus.\nAliquam hic cumque molestias.",
    "createdAt": "2020-06-30T18:34:15.2961734+00:00",
    "finishedAt": "2020-12-26T06:57:32.6547789+00:00",
    "state": 1,
    "projectId": 56,
    "performerId": 17
  },
  {
    "id": 23,
    "name": "Et est ut repellat ea ad saepe error.",
    "description": "Qui delectus consequatur ducimus consequatur pariatur et qui.\nDistinctio sapiente quaerat saepe.",
    "createdAt": "2020-07-01T03:01:48.3818392+00:00",
    "finishedAt": "2021-05-14T19:45:52.4420653+00:00",
    "state": 0,
    "projectId": 50,
    "performerId": 32
  },
  {
    "id": 24,
    "name": "Facilis eum eaque eveniet voluptatem aut inventore fugiat.",
    "description": "Officiis earum quasi necessitatibus maxime facilis.\nDolore quas necessitatibus expedita.",
    "createdAt": "2020-06-30T17:16:08.4346389+00:00",
    "finishedAt": "2021-05-29T06:02:06.3997457+00:00",
    "state": 2,
    "projectId": 49,
    "performerId": 16
  },
  {
    "id": 25,
    "name": "Architecto perspiciatis ex qui quis porro ipsum mollitia nulla.",
    "description": "Fugiat vel tenetur et earum dolor sit.\nPorro necessitatibus consequatur voluptatem voluptatibus.\nCommodi minus aut maxime qui.\nMinus explicabo qui quia.\nAt nostrum soluta iste praesentium id magni eveniet et vel.\nUnde delectus porro et enim totam quia consequatur hic.",
    "createdAt": "2020-07-01T03:25:09.220457+00:00",
    "finishedAt": "2021-04-04T01:53:04.290696+00:00",
    "state": 2,
    "projectId": 78,
    "performerId": 33
  },
  {
    "id": 26,
    "name": "Est a et quam.",
    "description": "Consequatur aliquam quis ut magnam repudiandae voluptates quos.\nQui doloremque cum itaque.\nAssumenda est tempora explicabo omnis.\nVoluptas ut sunt rerum sapiente corporis modi quidem.",
    "createdAt": "2020-07-01T14:24:44.2326039+00:00",
    "finishedAt": "2020-08-02T20:48:44.6421429+00:00",
    "state": 2,
    "projectId": 7,
    "performerId": 33
  },
  {
    "id": 27,
    "name": "Nihil alias sint occaecati et aut laudantium.",
    "description": "Quidem eos in tempora.\nQuos distinctio in ut molestiae unde repudiandae enim.\nQuia quo dolorem in ad hic eligendi enim.\nVelit sit ea quaerat ad.",
    "createdAt": "2020-06-30T21:17:17.2985357+00:00",
    "finishedAt": "2021-03-18T18:35:14.4405468+00:00",
    "state": 2,
    "projectId": 20,
    "performerId": 44
  },
  {
    "id": 28,
    "name": "Maxime officiis qui illum.",
    "description": "Exercitationem modi quae ipsam soluta suscipit qui ut.\nIusto fuga totam consequatur officia.\nIpsa quis ut eum ut ut et aperiam reprehenderit optio.\nEos ut corporis velit consequatur nemo quae id.\nConsectetur eos dicta culpa itaque repellendus aut soluta beatae eveniet.",
    "createdAt": "2020-07-01T03:23:06.1003757+00:00",
    "finishedAt": "2021-02-21T07:00:07.950612+00:00",
    "state": 3,
    "projectId": 26,
    "performerId": 12
  },
  {
    "id": 29,
    "name": "Rerum maiores nobis corrupti quis in quae.",
    "description": "Et dolorum ab voluptatum.\nMollitia quia et voluptatem nihil voluptas et.\nEt sed expedita ducimus sit praesentium labore a dolores.",
    "createdAt": "2020-06-30T22:25:00.8410991+00:00",
    "finishedAt": "2020-11-25T17:13:44.8628491+00:00",
    "state": 1,
    "projectId": 60,
    "performerId": 10
  },
  {
    "id": 30,
    "name": "Error perferendis temporibus.",
    "description": "Praesentium ut non natus qui culpa quisquam.\nQuaerat temporibus repudiandae quo in vel corrupti earum dolores incidunt.\nEt neque quos accusamus.\nFugiat ab enim.",
    "createdAt": "2020-07-01T14:27:44.4888449+00:00",
    "finishedAt": "2020-12-26T10:28:37.4474464+00:00",
    "state": 1,
    "projectId": 13,
    "performerId": 37
  },
  {
    "id": 31,
    "name": "Est ea nemo.",
    "description": "Molestias sint eum et qui saepe sunt in.\nUt rerum quaerat.\nOmnis sit in consequatur ut commodi.",
    "createdAt": "2020-06-30T14:54:06.3890813+00:00",
    "finishedAt": "2021-06-13T04:17:38.5282428+00:00",
    "state": 2,
    "projectId": 25,
    "performerId": 21
  },
  {
    "id": 32,
    "name": "Necessitatibus beatae animi unde velit nisi.",
    "description": "Dolorem ut eligendi blanditiis est labore.\nQuaerat voluptas reiciendis provident.\nQuae aperiam neque nemo omnis.\nDicta suscipit possimus.\nQui voluptatem tenetur.\nEst sequi corrupti.",
    "createdAt": "2020-07-01T14:32:03.4801577+00:00",
    "finishedAt": "2020-12-29T16:43:40.672813+00:00",
    "state": 2,
    "projectId": 6,
    "performerId": 1
  },
  {
    "id": 33,
    "name": "Optio consequatur tenetur perspiciatis et dolorum et vitae.",
    "description": "Iure similique totam ex.\nExcepturi aut eligendi doloribus velit.",
    "createdAt": "2020-07-01T12:20:05.3833747+00:00",
    "finishedAt": "2020-08-28T23:25:47.3790979+00:00",
    "state": 3,
    "projectId": 9,
    "performerId": 15
  },
  {
    "id": 34,
    "name": "Laboriosam molestiae corporis.",
    "description": "Illum quod perspiciatis sapiente asperiores dolor facilis vel.\nCulpa corrupti placeat laboriosam.\nAutem autem ut libero sapiente at id iure.\nQuas et laudantium.",
    "createdAt": "2020-07-01T03:38:38.9008905+00:00",
    "finishedAt": "2021-02-27T06:39:23.8582463+00:00",
    "state": 0,
    "projectId": 86,
    "performerId": 41
  },
  {
    "id": 35,
    "name": "Necessitatibus saepe totam soluta necessitatibus.",
    "description": "Accusantium quam praesentium ab.\nOmnis sapiente perferendis accusamus nostrum odio reprehenderit corrupti sit temporibus.\nFacilis voluptatem et porro eaque non non aut.",
    "createdAt": "2020-06-30T23:03:36.8073497+00:00",
    "finishedAt": "2021-03-10T22:49:46.2740554+00:00",
    "state": 2,
    "projectId": 1,
    "performerId": 48
  },
  {
    "id": 36,
    "name": "Voluptatibus animi corrupti iure voluptas.",
    "description": "Et est et veritatis quos natus quia.\nHic iusto sed quia aut numquam fuga quaerat.\nAut et necessitatibus ea placeat odit et dolores.",
    "createdAt": "2020-06-30T23:05:06.4155109+00:00",
    "finishedAt": "2021-05-16T19:43:34.8476973+00:00",
    "state": 1,
    "projectId": 20,
    "performerId": 27
  },
  {
    "id": 37,
    "name": "Nemo provident autem ipsa nemo recusandae sit inventore temporibus.",
    "description": "Perspiciatis delectus aliquid laudantium ex qui omnis qui.\nCum et eligendi ut sed autem ea.\nIllo et omnis similique.\nCulpa sunt voluptatem natus.\nAut repellendus voluptates quis quia praesentium alias.\nSed sed eveniet reprehenderit expedita sunt aliquid.",
    "createdAt": "2020-06-30T18:21:58.2167997+00:00",
    "finishedAt": "2020-11-30T04:40:53.1132836+00:00",
    "state": 3,
    "projectId": 9,
    "performerId": 2
  },
  {
    "id": 38,
    "name": "Natus optio sit explicabo commodi vel consequuntur et.",
    "description": "Quibusdam vero ut ex nam.\nVero incidunt nisi aut voluptas.\nEt distinctio nulla tempore numquam ea ad ipsa ex.\nQuis officiis id at qui exercitationem quam.\nDolor voluptatem possimus qui mollitia quibusdam sed asperiores explicabo alias.",
    "createdAt": "2020-07-01T05:21:30.0728182+00:00",
    "finishedAt": "2020-11-19T02:00:40.6801129+00:00",
    "state": 1,
    "projectId": 99,
    "performerId": 44
  },
  {
    "id": 39,
    "name": "Voluptatem incidunt voluptatem et veniam quis aut placeat.",
    "description": "Similique aspernatur facere consequatur porro.\nConsequatur molestiae autem est veritatis distinctio et.\nOmnis eius nemo.\nConsequatur autem dolorem a omnis.\nEaque praesentium tempora inventore.\nVelit eaque sit.",
    "createdAt": "2020-07-01T11:54:35.1279548+00:00",
    "finishedAt": "2021-03-28T11:08:00.6262336+00:00",
    "state": 1,
    "projectId": 41,
    "performerId": 27
  },
  {
    "id": 40,
    "name": "Eum mollitia et ipsa aperiam placeat illum provident reiciendis.",
    "description": "Consequatur et tempore.\nQuis neque qui laborum quia excepturi est quaerat laboriosam.",
    "createdAt": "2020-07-01T07:20:39.442429+00:00",
    "finishedAt": "2020-08-27T06:47:02.7053893+00:00",
    "state": 0,
    "projectId": 26,
    "performerId": 50
  },
  {
    "id": 41,
    "name": "Vero sed sed eveniet consectetur hic sunt saepe.",
    "description": "Itaque aut in quia dolore.\nCupiditate velit facilis laudantium et dolorum.\nQui molestias accusantium assumenda asperiores rerum itaque facere.\nQuia enim sed minima tempore.",
    "createdAt": "2020-07-01T13:31:47.6526712+00:00",
    "finishedAt": "2021-01-20T21:04:03.0655488+00:00",
    "state": 3,
    "projectId": 51,
    "performerId": 7
  },
  {
    "id": 42,
    "name": "Molestiae alias ducimus nihil dolores ut harum.",
    "description": "Similique aut velit fugiat magnam excepturi.\nAtque quae tempore deleniti et soluta possimus sunt consequatur delectus.\nOfficiis laboriosam non ut ut molestiae placeat sequi.\nDolorem quidem corrupti saepe accusamus ullam eos.",
    "createdAt": "2020-06-30T14:50:25.4306887+00:00",
    "finishedAt": "2020-07-27T23:38:52.1935871+00:00",
    "state": 0,
    "projectId": 71,
    "performerId": 12
  },
  {
    "id": 43,
    "name": "Natus omnis laborum voluptatem illum sed distinctio alias occaecati.",
    "description": "Consequuntur perspiciatis enim velit fugit accusamus eius repudiandae assumenda.\nExplicabo eveniet temporibus.",
    "createdAt": "2020-07-01T06:34:34.8050641+00:00",
    "finishedAt": "2021-05-23T17:17:52.7247538+00:00",
    "state": 1,
    "projectId": 44,
    "performerId": 37
  },
  {
    "id": 44,
    "name": "Earum dolorem ab nam fugiat velit iure laboriosam et voluptatem.",
    "description": "Esse voluptatem atque in molestias earum fuga libero.\nAsperiores laboriosam sint incidunt.\nSit labore aut repellendus molestias.\nExplicabo perferendis beatae recusandae odit quia.\nAut blanditiis cum.",
    "createdAt": "2020-06-30T17:03:24.3566154+00:00",
    "finishedAt": "2020-10-11T00:49:26.8156209+00:00",
    "state": 3,
    "projectId": 83,
    "performerId": 7
  },
  {
    "id": 45,
    "name": "Aliquid accusamus aut tenetur ut vero ipsum et nihil voluptatem.",
    "description": "Sapiente et voluptas fugit.\nUllam fuga in amet omnis exercitationem eum et et.\nMolestias accusantium in aliquid.\nCumque et dolorem est.\nNecessitatibus exercitationem voluptatem aut aliquam quasi.",
    "createdAt": "2020-06-30T17:51:03.3276171+00:00",
    "finishedAt": "2020-08-24T00:24:23.2583621+00:00",
    "state": 2,
    "projectId": 10,
    "performerId": 44
  },
  {
    "id": 46,
    "name": "Sapiente harum quos adipisci autem nihil quaerat praesentium id.",
    "description": "Fuga quibusdam totam quibusdam mollitia qui laudantium cum.\nNam debitis consequatur rem occaecati non atque.\nAperiam ab rerum quaerat neque.\nTempora atque facere iusto.",
    "createdAt": "2020-06-30T15:42:47.7866175+00:00",
    "finishedAt": "2021-03-13T05:52:04.9100868+00:00",
    "state": 0,
    "projectId": 42,
    "performerId": 38
  },
  {
    "id": 47,
    "name": "Aut recusandae et et eligendi dolores.",
    "description": "Nostrum vero tenetur maxime.\nVel facere sint est eos rem laudantium harum.\nEnim voluptas perferendis est.\nAut quia nobis numquam ab quaerat rem aut.\nMinima harum sunt reiciendis.",
    "createdAt": "2020-07-01T01:26:08.5577563+00:00",
    "finishedAt": "2020-10-11T12:42:06.5798307+00:00",
    "state": 2,
    "projectId": 58,
    "performerId": 44
  },
  {
    "id": 48,
    "name": "Voluptatibus eveniet quia necessitatibus vitae.",
    "description": "Eum commodi pariatur repudiandae in itaque error assumenda sit.\nFacilis ut atque dolore et culpa rerum.\nAssumenda quos ipsa.\nNemo nobis eaque quia voluptatum magni explicabo mollitia.\nVeniam aspernatur laudantium facilis.\nQuia commodi incidunt sequi velit est tenetur.",
    "createdAt": "2020-07-01T01:28:37.5177985+00:00",
    "finishedAt": "2021-06-06T04:43:13.8831172+00:00",
    "state": 1,
    "projectId": 54,
    "performerId": 47
  },
  {
    "id": 49,
    "name": "Rem praesentium nesciunt corrupti sequi eligendi reiciendis aut.",
    "description": "Inventore dolorem debitis beatae.\nIusto tempore quam totam ea aut.\nId voluptatibus aliquam.\nDolor et beatae qui cumque.\nCumque qui sed qui ab quibusdam nam est quia rerum.",
    "createdAt": "2020-07-01T10:43:32.9274861+00:00",
    "finishedAt": "2020-12-16T05:35:43.1261505+00:00",
    "state": 2,
    "projectId": 63,
    "performerId": 43
  },
  {
    "id": 50,
    "name": "Fuga molestiae aspernatur quam dolorem sed architecto quae recusandae.",
    "description": "Ipsa expedita facere.\nVel ex rem beatae laudantium minus a.\nIure debitis possimus eos ut neque corporis magni cupiditate explicabo.",
    "createdAt": "2020-07-01T12:18:45.4297011+00:00",
    "finishedAt": "2020-09-07T18:54:13.8796041+00:00",
    "state": 1,
    "projectId": 76,
    "performerId": 48
  },
  {
    "id": 51,
    "name": "Et rerum magni eos in eaque molestiae fugit.",
    "description": "Ea alias eum optio facere.\nConsequatur deserunt aspernatur omnis.\nReprehenderit non aut nesciunt in rerum accusamus consequuntur dolorum minima.\nCorporis a iure est accusantium qui iusto quia facere alias.",
    "createdAt": "2020-07-01T14:27:54.8994982+00:00",
    "finishedAt": "2021-05-10T02:32:13.8877743+00:00",
    "state": 2,
    "projectId": 39,
    "performerId": 17
  },
  {
    "id": 52,
    "name": "Nihil nemo et ipsum tempora nesciunt aut voluptatem.",
    "description": "Eos quis aut.\nQui a reiciendis quam.",
    "createdAt": "2020-07-01T11:43:05.230086+00:00",
    "finishedAt": "2021-03-08T06:37:59.6314405+00:00",
    "state": 3,
    "projectId": 3,
    "performerId": 37
  },
  {
    "id": 53,
    "name": "Recusandae quaerat nemo.",
    "description": "Eum cumque molestias est et repudiandae voluptas.\nSunt reiciendis ducimus et ipsam et ad optio.\nCupiditate et porro explicabo aut aliquam rerum aliquid ut consequatur.\nRerum explicabo fugit.",
    "createdAt": "2020-06-30T16:06:01.0386827+00:00",
    "finishedAt": "2020-07-11T15:22:09.8883588+00:00",
    "state": 0,
    "projectId": 21,
    "performerId": 23
  },
  {
    "id": 54,
    "name": "Est dolores corrupti deleniti inventore aut quaerat est.",
    "description": "Dolores adipisci omnis sunt expedita voluptate quisquam.\nAspernatur velit mollitia.\nBlanditiis vero dignissimos dolorum nihil enim unde porro.\nVoluptatum et laboriosam magni inventore nemo et magnam est.",
    "createdAt": "2020-06-30T19:14:34.3917872+00:00",
    "finishedAt": "2021-04-13T08:31:59.0044769+00:00",
    "state": 3,
    "projectId": 91,
    "performerId": 21
  },
  {
    "id": 55,
    "name": "Ipsam pariatur deleniti neque qui sint aliquam.",
    "description": "Aut qui qui dolorem.\nSed ut et nulla sit sit odio a animi.\nDeleniti temporibus quis.\nRerum qui delectus vel iure excepturi dolorem culpa.",
    "createdAt": "2020-06-30T14:40:25.5923478+00:00",
    "finishedAt": "2021-03-14T06:17:24.3940994+00:00",
    "state": 3,
    "projectId": 43,
    "performerId": 33
  },
  {
    "id": 56,
    "name": "Ut labore dolorem.",
    "description": "Rerum praesentium est tempore ullam.\nEos et sed.\nConsequatur sunt et quo architecto velit ipsam.\nTenetur est unde repellat sed ipsum et.",
    "createdAt": "2020-06-30T15:54:06.7508072+00:00",
    "finishedAt": "2020-09-06T03:48:11.3908962+00:00",
    "state": 1,
    "projectId": 52,
    "performerId": 22
  },
  {
    "id": 57,
    "name": "Illo quaerat quod dolorum aspernatur facere adipisci.",
    "description": "Distinctio voluptas et quos est qui qui vero nesciunt magnam.\nEsse repellendus blanditiis aut sit.\nVoluptas porro rerum molestiae.",
    "createdAt": "2020-07-01T01:51:00.5083075+00:00",
    "finishedAt": "2020-10-25T05:45:02.0224564+00:00",
    "state": 1,
    "projectId": 32,
    "performerId": 3
  },
  {
    "id": 58,
    "name": "Distinctio non aut ut et repudiandae quidem officia.",
    "description": "Maxime laudantium molestiae sequi enim cum.\nCommodi facere recusandae.\nConsequatur aliquam explicabo veniam voluptas mollitia.\nDoloribus aut repellendus est placeat aut ullam reiciendis.",
    "createdAt": "2020-07-01T02:14:27.1761733+00:00",
    "finishedAt": "2020-08-27T15:29:55.2806637+00:00",
    "state": 3,
    "projectId": 57,
    "performerId": 43
  },
  {
    "id": 59,
    "name": "Odit earum itaque.",
    "description": "Quas consequatur dolorem qui dolores aspernatur non ad.\nFugiat dolorem odio nobis dolores quo qui at.\nPerferendis aliquid voluptatem dolor doloremque.\nQui dolorum molestias occaecati et aperiam nemo quod iste.",
    "createdAt": "2020-07-01T05:37:12.7630402+00:00",
    "finishedAt": "2020-09-30T08:58:44.3352401+00:00",
    "state": 2,
    "projectId": 57,
    "performerId": 24
  },
  {
    "id": 60,
    "name": "Soluta cupiditate nihil rerum deserunt.",
    "description": "Laudantium voluptatum hic.\nAb voluptatem impedit vitae ut adipisci.\nEst omnis suscipit minima debitis deserunt est.",
    "createdAt": "2020-07-01T03:45:32.1192174+00:00",
    "finishedAt": "2021-06-08T13:57:33.2477985+00:00",
    "state": 0,
    "projectId": 89,
    "performerId": 39
  },
  {
    "id": 61,
    "name": "Ut temporibus exercitationem voluptas quia vel.",
    "description": "Numquam occaecati sapiente commodi aut libero illo totam ut quia.\nMolestias ea iste eum.\nId nostrum id aut.\nQui culpa perspiciatis eaque deserunt ea molestiae minima eos.",
    "createdAt": "2020-07-01T07:43:32.5571326+00:00",
    "finishedAt": "2021-04-24T11:34:20.2479513+00:00",
    "state": 3,
    "projectId": 21,
    "performerId": 16
  },
  {
    "id": 62,
    "name": "Dolores eius magnam quia quasi voluptatem dolor.",
    "description": "Exercitationem sint cupiditate eaque facilis.\nMinima asperiores non rem eos et itaque.\nQuia eum enim et consectetur omnis.\nSapiente porro et incidunt dolor ut harum maiores qui iusto.",
    "createdAt": "2020-07-01T01:39:59.8777259+00:00",
    "finishedAt": "2020-09-20T04:40:22.5942063+00:00",
    "state": 2,
    "projectId": 43,
    "performerId": 44
  },
  {
    "id": 63,
    "name": "Aut vel eaque animi quos quisquam dolorem sed.",
    "description": "Ut qui facilis et saepe voluptates doloremque nobis.\nSuscipit velit blanditiis consequatur laudantium quaerat.",
    "createdAt": "2020-07-01T13:13:43.0768258+00:00",
    "finishedAt": "2020-10-25T03:33:22.0585999+00:00",
    "state": 1,
    "projectId": 85,
    "performerId": 50
  },
  {
    "id": 64,
    "name": "Molestiae quibusdam unde ad omnis nemo distinctio earum enim excepturi.",
    "description": "In voluptates provident repudiandae tenetur maiores et et cupiditate molestias.\nPossimus sint molestiae laborum excepturi ipsam.\nNumquam quam et minima iste sed.\nTempora dignissimos est ut et sint repellendus.",
    "createdAt": "2020-07-01T02:09:38.6963997+00:00",
    "finishedAt": "2021-05-26T21:04:30.1017536+00:00",
    "state": 0,
    "projectId": 97,
    "performerId": 3
  },
  {
    "id": 65,
    "name": "Hic voluptas cum.",
    "description": "Non odit est quae nam sed.\nVoluptas consequatur est ut blanditiis.\nPraesentium asperiores nam omnis corrupti consequuntur veritatis.\nVoluptas odit omnis voluptatum.\nAssumenda totam neque qui aut dolorem voluptates nihil ut voluptate.",
    "createdAt": "2020-07-01T08:31:45.7165683+00:00",
    "finishedAt": "2020-10-10T21:07:09.4610555+00:00",
    "state": 0,
    "projectId": 19,
    "performerId": 48
  },
  {
    "id": 66,
    "name": "Quis repellendus vel non perferendis enim sit omnis.",
    "description": "Illo explicabo autem sed voluptas voluptatem quidem et.\nRepellat eos similique id aliquid rerum dolorem repellendus placeat.\nUnde quia sint qui sunt.\nQuisquam ducimus et nostrum in cupiditate et doloribus numquam.",
    "createdAt": "2020-07-01T00:37:29.2384201+00:00",
    "finishedAt": "2020-08-14T18:17:29.3416393+00:00",
    "state": 1,
    "projectId": 39,
    "performerId": 48
  },
  {
    "id": 67,
    "name": "Excepturi eum ea ut ea minima asperiores eos.",
    "description": "Ea fugiat maxime itaque sed dolores excepturi aut iure.\nNihil assumenda hic.\nRem impedit in occaecati.",
    "createdAt": "2020-07-01T13:51:34.6185392+00:00",
    "finishedAt": "2020-10-28T20:20:35.3408328+00:00",
    "state": 0,
    "projectId": 44,
    "performerId": 31
  },
  {
    "id": 68,
    "name": "Aut dolor accusantium occaecati nulla inventore.",
    "description": "Quia eligendi nobis illo cum culpa eos.\nAsperiores dolorem enim et incidunt deserunt itaque magnam aut molestias.\nEt qui alias exercitationem iure expedita perspiciatis repellat.\nConsectetur a aliquid qui eius.",
    "createdAt": "2020-06-30T21:58:24.0318113+00:00",
    "finishedAt": "2020-08-14T11:24:25.9100119+00:00",
    "state": 2,
    "projectId": 42,
    "performerId": 21
  },
  {
    "id": 69,
    "name": "Quo eum qui quia impedit.",
    "description": "Unde labore commodi et sit et facere fugit quia.\nExercitationem in dolores qui cupiditate temporibus.\nIllum est veniam.\nCulpa sequi tempora veniam nam harum ratione asperiores officia.\nSuscipit debitis dolor ducimus aspernatur dolorem sit dolorem sequi laudantium.",
    "createdAt": "2020-07-01T05:41:38.5841239+00:00",
    "finishedAt": "2020-07-19T23:38:04.9336939+00:00",
    "state": 1,
    "projectId": 62,
    "performerId": 7
  },
  {
    "id": 70,
    "name": "Sit eum numquam quis.",
    "description": "Ut delectus vitae eos nisi sint.\nId quia qui voluptatum sapiente occaecati ex dolores nihil.\nNihil est similique illum rem maxime est dolores nesciunt a.",
    "createdAt": "2020-07-01T05:34:16.3313667+00:00",
    "finishedAt": "2021-01-19T12:40:43.1380787+00:00",
    "state": 0,
    "projectId": 81,
    "performerId": 20
  },
  {
    "id": 71,
    "name": "Vel ipsam minus perspiciatis totam aliquam cumque.",
    "description": "Et ex vero sed magnam voluptates assumenda animi ex nisi.\nEst libero et possimus soluta et eius nemo.\nAmet natus rerum officia id quis aut hic.\nPerspiciatis est voluptate ad.\nRepellat non sapiente enim dolores et qui natus.",
    "createdAt": "2020-07-01T02:56:49.5620231+00:00",
    "finishedAt": "2020-07-07T20:22:56.6268716+00:00",
    "state": 1,
    "projectId": 71,
    "performerId": 14
  },
  {
    "id": 72,
    "name": "Est dignissimos voluptates et.",
    "description": "Enim laudantium aut aut illum praesentium consequatur eligendi.\nQuis hic et perspiciatis porro.",
    "createdAt": "2020-07-01T13:28:18.0535603+00:00",
    "finishedAt": "2021-04-19T08:39:54.7131684+00:00",
    "state": 3,
    "projectId": 28,
    "performerId": 42
  },
  {
    "id": 73,
    "name": "Enim mollitia qui accusantium repellat ab doloremque.",
    "description": "Odio ut eum cumque incidunt et et dolores.\nAut laborum veritatis repudiandae aspernatur autem quia voluptatem.\nMollitia natus impedit voluptatibus vitae.\nUt dolores ipsum magni necessitatibus repellat praesentium.\nDolorem quia voluptatem.",
    "createdAt": "2020-07-01T14:29:33.2663519+00:00",
    "finishedAt": "2021-04-28T17:12:58.9359627+00:00",
    "state": 1,
    "projectId": 39,
    "performerId": 6
  },
  {
    "id": 74,
    "name": "Eveniet temporibus architecto numquam consequatur molestiae eius.",
    "description": "Magnam rerum incidunt beatae maiores blanditiis voluptatem quo.\nExplicabo placeat omnis id eligendi ut.",
    "createdAt": "2020-06-30T14:37:17.7094809+00:00",
    "finishedAt": "2021-01-11T02:20:09.5326598+00:00",
    "state": 2,
    "projectId": 67,
    "performerId": 29
  },
  {
    "id": 75,
    "name": "Odit vel quam earum non qui consequatur expedita molestias temporibus.",
    "description": "Eos rerum delectus sit placeat illum dolorem dicta dolores similique.\nRem nesciunt quae minima modi dignissimos.\nArchitecto omnis atque quia blanditiis.\nEveniet dolorem nihil distinctio occaecati voluptas et corrupti ea omnis.",
    "createdAt": "2020-06-30T15:40:14.9693771+00:00",
    "finishedAt": "2021-02-28T01:46:27.3309905+00:00",
    "state": 1,
    "projectId": 18,
    "performerId": 14
  },
  {
    "id": 76,
    "name": "Neque error natus magnam quis sit odit rerum ut cupiditate.",
    "description": "Officia aut in non amet perferendis quis.\nQui dolorem similique consequatur et itaque et est sunt ipsum.\nVoluptatem qui perspiciatis dolorem cum omnis.",
    "createdAt": "2020-07-01T07:38:44.1889962+00:00",
    "finishedAt": "2020-11-01T18:44:37.398338+00:00",
    "state": 0,
    "projectId": 93,
    "performerId": 2
  },
  {
    "id": 77,
    "name": "Autem ut pariatur est commodi ratione autem iure.",
    "description": "Error labore nulla odio.\nUt expedita vitae sed molestiae velit modi ipsa illo.",
    "createdAt": "2020-06-30T19:22:35.0355352+00:00",
    "finishedAt": "2020-08-19T16:32:36.6438147+00:00",
    "state": 2,
    "projectId": 4,
    "performerId": 10
  },
  {
    "id": 78,
    "name": "Aliquam voluptates nam eos totam.",
    "description": "Est rerum autem velit quaerat.\nNihil molestias enim exercitationem ut ipsum.",
    "createdAt": "2020-07-01T01:33:09.8478729+00:00",
    "finishedAt": "2020-12-15T12:59:29.8439469+00:00",
    "state": 1,
    "projectId": 69,
    "performerId": 33
  },
  {
    "id": 79,
    "name": "Nihil voluptatem reprehenderit itaque animi illum incidunt.",
    "description": "Est at ratione quaerat vel est velit sit et voluptatem.\nNulla et quibusdam veniam tempore.\nSed molestiae laudantium aut sed dolores temporibus occaecati.\nArchitecto accusantium velit similique.\nVoluptatum est nihil corrupti qui natus magnam et.",
    "createdAt": "2020-06-30T15:46:04.9850121+00:00",
    "finishedAt": "2020-11-28T02:51:18.62241+00:00",
    "state": 2,
    "projectId": 98,
    "performerId": 8
  },
  {
    "id": 80,
    "name": "Magnam et quia sint eos et.",
    "description": "Perferendis ut quisquam ex.\nQuidem est ipsum est ullam expedita fugiat sed.\nNemo cumque aut voluptatum.\nVero possimus dolorem.\nVelit consectetur cumque earum.\nDebitis et est dolore dolores provident.",
    "createdAt": "2020-06-30T15:35:56.2355703+00:00",
    "finishedAt": "2020-11-29T09:59:53.7963418+00:00",
    "state": 2,
    "projectId": 10,
    "performerId": 28
  },
  {
    "id": 81,
    "name": "Nihil alias repudiandae aperiam iusto natus consequuntur officiis autem aspernatur.",
    "description": "Commodi dignissimos accusamus.\nAutem quia et amet sunt cupiditate.\nEaque eligendi magnam nostrum.\nEst velit suscipit qui.\nIllo quo et sapiente dolor itaque modi veniam illo.",
    "createdAt": "2020-07-01T07:53:28.0581599+00:00",
    "finishedAt": "2021-04-07T12:23:54.6160204+00:00",
    "state": 0,
    "projectId": 35,
    "performerId": 9
  },
  {
    "id": 82,
    "name": "Quod aperiam dolor numquam vero laborum natus.",
    "description": "Labore consequatur ea et et fugit labore enim.\nDelectus cupiditate velit sit non et eaque.",
    "createdAt": "2020-07-01T13:36:12.3091159+00:00",
    "finishedAt": "2020-12-22T20:59:14.4957041+00:00",
    "state": 2,
    "projectId": 49,
    "performerId": 49
  },
  {
    "id": 83,
    "name": "Quam aut aut ipsa amet sint modi asperiores.",
    "description": "Atque aut ut maiores repudiandae est ab asperiores necessitatibus.\nEst dolorem mollitia id tempore consectetur necessitatibus voluptatem.\nId ullam dignissimos iure.\nVel possimus voluptas voluptas totam fuga.",
    "createdAt": "2020-07-01T01:01:22.5480083+00:00",
    "finishedAt": "2021-05-23T03:44:27.4168871+00:00",
    "state": 1,
    "projectId": 75,
    "performerId": 28
  },
  {
    "id": 84,
    "name": "Corrupti enim nam voluptas id amet unde.",
    "description": "Sit a et.\nMollitia dolore voluptas possimus error eaque dolorum consequatur id.\nAut est cupiditate voluptatem.\nNemo quo dolores.",
    "createdAt": "2020-07-01T11:06:44.2835674+00:00",
    "finishedAt": "2020-08-08T10:27:27.3974572+00:00",
    "state": 1,
    "projectId": 97,
    "performerId": 15
  },
  {
    "id": 85,
    "name": "Sequi ex quia quam sit temporibus.",
    "description": "Optio doloremque molestiae et aliquid sed.\nSimilique odit dolorum.\nCulpa eum tempora aut aut dolor voluptatem cupiditate qui.\nEt non sint accusantium sunt sit.\nSuscipit voluptas quaerat esse et voluptatem eum incidunt.\nExpedita commodi a error sint dolorem quae.",
    "createdAt": "2020-07-01T06:14:33.9939152+00:00",
    "finishedAt": "2021-03-28T11:35:49.7206737+00:00",
    "state": 0,
    "projectId": 49,
    "performerId": 11
  },
  {
    "id": 86,
    "name": "Error fugiat praesentium suscipit aut molestiae accusamus numquam eligendi quia.",
    "description": "Fuga dolor occaecati quaerat incidunt ut commodi.\nDistinctio similique in est non cupiditate.",
    "createdAt": "2020-07-01T12:35:10.3520059+00:00",
    "finishedAt": "2020-09-12T02:39:50.7693517+00:00",
    "state": 0,
    "projectId": 23,
    "performerId": 3
  },
  {
    "id": 87,
    "name": "Expedita fuga et eius vitae facere error dolorem.",
    "description": "Magni veritatis doloremque culpa iusto corporis est eveniet.\nQuasi dolores temporibus molestiae assumenda et voluptatem architecto.",
    "createdAt": "2020-07-01T09:46:14.0455039+00:00",
    "finishedAt": "2020-12-06T02:53:20.3073262+00:00",
    "state": 3,
    "projectId": 22,
    "performerId": 4
  },
  {
    "id": 88,
    "name": "Voluptatibus minima sit laborum consequatur laborum soluta unde at ut.",
    "description": "Assumenda occaecati totam dolores autem consequuntur.\nAssumenda iusto velit ea autem molestiae assumenda.\nEt temporibus sequi unde est iste voluptas.",
    "createdAt": "2020-07-01T11:20:10.7228729+00:00",
    "finishedAt": "2020-09-19T11:35:25.193834+00:00",
    "state": 1,
    "projectId": 26,
    "performerId": 8
  },
  {
    "id": 89,
    "name": "Blanditiis accusantium facilis.",
    "description": "Magni at molestiae voluptatem quisquam vel dolores.\nEum in molestiae.\nLibero blanditiis fugiat consequatur est atque eius ex sint neque.\nFacere et molestias aut.\nLaborum corporis enim.",
    "createdAt": "2020-07-01T10:04:44.3932668+00:00",
    "finishedAt": "2021-04-08T05:40:47.5045473+00:00",
    "state": 2,
    "projectId": 90,
    "performerId": 17
  },
  {
    "id": 90,
    "name": "Quia ullam laudantium.",
    "description": "Maiores aperiam aliquam similique sit vel error.\nFacilis nihil omnis laboriosam.\nDelectus eligendi cum.\nNumquam ut odit dignissimos beatae.\nVoluptate cupiditate facilis consequatur magni.\nPorro modi voluptatem voluptatum sapiente dolor quia dolores.",
    "createdAt": "2020-07-01T08:20:56.867877+00:00",
    "finishedAt": "2021-05-25T23:39:56.3393328+00:00",
    "state": 1,
    "projectId": 61,
    "performerId": 33
  },
  {
    "id": 91,
    "name": "Quae temporibus sunt dolor quis necessitatibus ut facilis voluptatibus.",
    "description": "Consequatur distinctio occaecati ipsa harum omnis fugit et.\nPariatur quae sed alias iusto deleniti molestiae deleniti ut.",
    "createdAt": "2020-07-01T03:20:07.5661955+00:00",
    "finishedAt": "2020-08-13T09:48:12.0230128+00:00",
    "state": 1,
    "projectId": 94,
    "performerId": 33
  },
  {
    "id": 92,
    "name": "Voluptatibus minus magni.",
    "description": "Aut velit dolor.\nCumque pariatur enim aliquid est eaque temporibus exercitationem.",
    "createdAt": "2020-07-01T04:51:46.6248606+00:00",
    "finishedAt": "2021-02-14T16:53:39.5542626+00:00",
    "state": 0,
    "projectId": 98,
    "performerId": 13
  },
  {
    "id": 93,
    "name": "Repellat nobis cupiditate nihil sequi est dolore.",
    "description": "Sequi distinctio magni dolores.\nFugit repudiandae rerum repudiandae et enim.\nQui ullam unde dolorem adipisci sint.\nNon magnam aut tempore.",
    "createdAt": "2020-06-30T17:17:05.9881666+00:00",
    "finishedAt": "2020-12-07T22:46:57.1213833+00:00",
    "state": 2,
    "projectId": 97,
    "performerId": 27
  },
  {
    "id": 94,
    "name": "Occaecati mollitia deleniti minus voluptatibus.",
    "description": "Repellendus ut id qui debitis et porro excepturi.\nFugiat est dicta.\nConsequatur eius tenetur maiores ab maiores excepturi dolores et.\nNon corrupti voluptatem dolorum fuga earum voluptas.",
    "createdAt": "2020-07-01T13:55:45.55964+00:00",
    "finishedAt": "2020-07-11T08:24:36.0024279+00:00",
    "state": 3,
    "projectId": 23,
    "performerId": 43
  },
  {
    "id": 95,
    "name": "Sed eveniet adipisci quam reprehenderit quod sequi consequatur.",
    "description": "Eligendi sit quasi officiis debitis rem in reiciendis.\nIpsa illo culpa maiores facilis non et laborum consequatur explicabo.\nLabore natus dolorem corrupti exercitationem quidem ut.\nMagni dolorem quod et.",
    "createdAt": "2020-07-01T08:44:17.7361712+00:00",
    "finishedAt": "2021-05-25T12:05:48.9418875+00:00",
    "state": 3,
    "projectId": 48,
    "performerId": 15
  },
  {
    "id": 96,
    "name": "Qui tempore voluptas nisi quo vel quas sint hic.",
    "description": "Ut rerum laborum et et.\nDignissimos magni pariatur culpa in labore ut esse pariatur voluptatem.\nOdio itaque accusamus placeat suscipit.\nModi quasi earum sed qui ut.\nRerum in saepe eveniet saepe sit non enim.",
    "createdAt": "2020-07-01T01:34:55.8039489+00:00",
    "finishedAt": "2021-05-25T20:07:18.6547991+00:00",
    "state": 3,
    "projectId": 19,
    "performerId": 8
  },
  {
    "id": 97,
    "name": "Molestiae ad velit adipisci rem facere soluta.",
    "description": "Recusandae praesentium reprehenderit commodi eos porro asperiores.\nNeque quidem dolor ut laboriosam occaecati nam earum doloribus.\nNon adipisci voluptatibus doloribus et voluptate error accusantium.\nMolestias quia quas nulla iusto.\nEnim sapiente est.\nRerum tenetur aut soluta ut dolor velit quidem sequi.",
    "createdAt": "2020-07-01T12:09:38.5780018+00:00",
    "finishedAt": "2021-06-18T04:54:59.7278922+00:00",
    "state": 2,
    "projectId": 81,
    "performerId": 48
  },
  {
    "id": 98,
    "name": "Nesciunt occaecati voluptate saepe.",
    "description": "Atque quod expedita autem maxime sit.\nNatus earum quia.\nCum velit excepturi.\nConsequatur qui est.\nDignissimos qui ut et enim quis.\nSuscipit cumque sit sint voluptas ratione sed perspiciatis.",
    "createdAt": "2020-06-30T15:02:28.4589475+00:00",
    "finishedAt": "2021-04-18T22:37:53.9840107+00:00",
    "state": 3,
    "projectId": 87,
    "performerId": 28
  },
  {
    "id": 99,
    "name": "Voluptas ut voluptatem veniam saepe natus et ipsam sint nostrum.",
    "description": "Iste dolorem non magni ex quia iure iure rerum.\nIllum ut quam veritatis.",
    "createdAt": "2020-07-01T06:32:37.4504896+00:00",
    "finishedAt": "2020-07-30T12:52:12.9698137+00:00",
    "state": 0,
    "projectId": 59,
    "performerId": 44
  },
  {
    "id": 100,
    "name": "Quae facere libero.",
    "description": "Neque in quia ipsum quia necessitatibus error harum omnis.\nEt hic nisi quia doloribus eum eum tempora.\nEnim quibusdam aliquam labore et.\nEst voluptas ipsam sit et dolores est ut aut.\nVoluptas itaque dolorem voluptatem.\nPraesentium et dolores eum placeat consequatur in fugit.",
    "createdAt": "2020-06-30T17:07:51.9621161+00:00",
    "finishedAt": "2021-06-14T23:00:26.1296623+00:00",
    "state": 2,
    "projectId": 5,
    "performerId": 30
  },
  {
    "id": 101,
    "name": "Ratione sed voluptate sequi atque doloremque est voluptatem veniam.",
    "description": "Similique quae magnam ullam a.\nNumquam animi consequatur doloribus.\nSaepe consequatur architecto tempore.",
    "createdAt": "2020-06-30T16:49:51.2489542+00:00",
    "finishedAt": "2020-11-02T14:46:51.1023391+00:00",
    "state": 0,
    "projectId": 6,
    "performerId": 42
  },
  {
    "id": 102,
    "name": "Voluptatem maiores sit repudiandae ea sequi voluptas.",
    "description": "Quisquam molestias qui id quia aliquid quia.\nProvident voluptas non consequuntur ut sequi placeat.\nTenetur minus ut repellendus recusandae veritatis fugiat.",
    "createdAt": "2020-06-30T20:18:41.6135613+00:00",
    "finishedAt": "2021-06-05T07:30:54.0734311+00:00",
    "state": 1,
    "projectId": 65,
    "performerId": 36
  },
  {
    "id": 103,
    "name": "Assumenda esse aliquam voluptatibus dolore aut necessitatibus dicta aut voluptas.",
    "description": "Facilis quibusdam rerum.\nFuga quisquam qui animi commodi magni ullam ut odit.\nDoloremque quos similique.\nTempore quae veniam modi suscipit voluptatem adipisci autem.",
    "createdAt": "2020-07-01T10:26:13.5492866+00:00",
    "finishedAt": "2020-12-31T09:19:34.1850193+00:00",
    "state": 0,
    "projectId": 11,
    "performerId": 22
  },
  {
    "id": 104,
    "name": "Expedita odit distinctio rerum nesciunt excepturi.",
    "description": "Laborum ipsum ab vel velit eius beatae sint dolorem dignissimos.\nNihil laudantium soluta et dolore quibusdam illo amet odit.\nAb dolores numquam earum.\nEt dignissimos numquam error sit error mollitia dignissimos est voluptatem.\nAut ex adipisci quia laudantium.",
    "createdAt": "2020-06-30T21:25:54.858394+00:00",
    "finishedAt": "2021-03-21T03:54:06.2654049+00:00",
    "state": 0,
    "projectId": 67,
    "performerId": 16
  },
  {
    "id": 105,
    "name": "Quos et accusamus harum ut dolorem nesciunt unde necessitatibus quo.",
    "description": "Eaque fugiat accusamus corrupti error quidem ullam.\nAut numquam dolorem sit doloremque.\nEt est optio doloribus non soluta harum.\nAut minima veniam quos recusandae voluptatem.\nTempore aperiam beatae nihil sunt.",
    "createdAt": "2020-07-01T01:48:40.7368248+00:00",
    "finishedAt": "2021-01-06T18:28:46.5375504+00:00",
    "state": 2,
    "projectId": 92,
    "performerId": 7
  },
  {
    "id": 106,
    "name": "Iste quo necessitatibus voluptatem odit nihil sunt enim.",
    "description": "Officia veritatis non error est officia sed.\nCumque ad aut.\nSit placeat ipsam earum id et.\nDolorem ea iure sint rem molestiae.\nDignissimos distinctio commodi perferendis.\nEt nihil quos quos facilis nesciunt nihil voluptas expedita.",
    "createdAt": "2020-07-01T08:05:58.9368232+00:00",
    "finishedAt": "2021-02-14T13:41:17.164303+00:00",
    "state": 0,
    "projectId": 84,
    "performerId": 16
  },
  {
    "id": 107,
    "name": "Minus eligendi aliquam libero repellendus sit.",
    "description": "Perspiciatis blanditiis quidem et.\nUt impedit est cupiditate.",
    "createdAt": "2020-07-01T10:14:11.2382577+00:00",
    "finishedAt": "2020-08-21T07:42:35.1728057+00:00",
    "state": 2,
    "projectId": 16,
    "performerId": 40
  },
  {
    "id": 108,
    "name": "Provident asperiores id recusandae.",
    "description": "Qui sint ex aliquid dolor.\nSint ducimus similique enim nostrum aspernatur cumque temporibus.\nExcepturi consequuntur nulla ratione consequatur.\nAutem perferendis fugiat rerum ea dolores ipsum reprehenderit voluptatibus.\nEst et magni vel maiores temporibus.",
    "createdAt": "2020-06-30T19:20:05.5633416+00:00",
    "finishedAt": "2021-01-18T06:44:35.2729647+00:00",
    "state": 0,
    "projectId": 97,
    "performerId": 20
  },
  {
    "id": 109,
    "name": "Similique aut minima est.",
    "description": "Ad doloremque tenetur in quaerat iste.\nQuas cupiditate quo est error maxime.\nOfficia non rerum.",
    "createdAt": "2020-07-01T00:49:00.2062421+00:00",
    "finishedAt": "2020-07-31T11:33:58.5148462+00:00",
    "state": 3,
    "projectId": 16,
    "performerId": 16
  },
  {
    "id": 110,
    "name": "Qui quia qui excepturi esse sed omnis.",
    "description": "Et et voluptatem quod est fugit hic nihil.\nDistinctio in quis atque.\nVoluptatum omnis molestiae eos debitis.",
    "createdAt": "2020-06-30T20:19:42.8687035+00:00",
    "finishedAt": "2021-05-02T11:00:36.9761309+00:00",
    "state": 0,
    "projectId": 25,
    "performerId": 33
  },
  {
    "id": 111,
    "name": "Alias neque vero dolores laborum est eum corporis est.",
    "description": "Expedita facilis blanditiis qui aut itaque quidem quas reprehenderit.\nAsperiores id quibusdam praesentium praesentium iste qui.\nA harum sit perspiciatis libero consequatur voluptas et error vero.",
    "createdAt": "2020-07-01T02:36:15.9726983+00:00",
    "finishedAt": "2021-03-21T13:25:36.6217424+00:00",
    "state": 3,
    "projectId": 95,
    "performerId": 47
  },
  {
    "id": 112,
    "name": "Provident molestiae dolores.",
    "description": "Vel quia sunt harum dicta sint animi.\nId nobis aut reiciendis facilis dolores quia autem dolor.\nReprehenderit ex dolores totam amet at et magnam.\nAut sit est.\nLaborum temporibus quis excepturi.\nRem modi optio atque natus.",
    "createdAt": "2020-06-30T15:52:49.7595458+00:00",
    "finishedAt": "2021-06-06T05:18:33.067177+00:00",
    "state": 3,
    "projectId": 12,
    "performerId": 33
  },
  {
    "id": 113,
    "name": "Maxime repudiandae ducimus et amet ex voluptatibus.",
    "description": "Ut cupiditate eum nisi.\nLabore consequatur quo in.",
    "createdAt": "2020-07-01T00:57:55.0773827+00:00",
    "finishedAt": "2021-01-23T13:02:28.21871+00:00",
    "state": 3,
    "projectId": 56,
    "performerId": 46
  },
  {
    "id": 114,
    "name": "Velit quidem qui laboriosam voluptate debitis aut.",
    "description": "Recusandae quaerat ex.\nDeserunt aut dignissimos qui provident perferendis architecto ut et.\nConsectetur incidunt eius vero.\nUt ut dolorum.\nRepellat libero corporis consequuntur in distinctio.",
    "createdAt": "2020-07-01T13:59:54.3120433+00:00",
    "finishedAt": "2021-05-27T18:52:16.8414427+00:00",
    "state": 0,
    "projectId": 40,
    "performerId": 13
  },
  {
    "id": 115,
    "name": "Similique possimus ipsam aliquid maiores laborum optio.",
    "description": "Nihil sint qui illum et libero.\nDolorem illum dolorem optio ipsam.\nEa odit quis aut et autem non vel iusto.",
    "createdAt": "2020-07-01T10:59:44.2339816+00:00",
    "finishedAt": "2020-10-16T11:22:44.9131565+00:00",
    "state": 3,
    "projectId": 24,
    "performerId": 3
  },
  {
    "id": 116,
    "name": "Similique explicabo et tempore omnis et.",
    "description": "Enim est doloribus quaerat aperiam illum ut rerum explicabo.\nCupiditate consequuntur a.\nVeniam et qui fuga doloribus vel rerum.\nAtque voluptatem ex.\nQuia consequatur facilis architecto quod temporibus ex.",
    "createdAt": "2020-07-01T13:35:36.9910406+00:00",
    "finishedAt": "2021-01-26T07:51:08.2130173+00:00",
    "state": 2,
    "projectId": 67,
    "performerId": 47
  },
  {
    "id": 117,
    "name": "Molestiae facilis vero sunt sunt dolores et ut.",
    "description": "Amet ut omnis temporibus esse qui quis delectus.\nQuis tempore ut atque optio.\nRepellat sit ea id est occaecati earum consectetur cumque omnis.\nQuis quod sapiente reprehenderit ut quos quos ut recusandae.\nSunt quis quia sed voluptatibus rem.\nAut magni assumenda exercitationem et.",
    "createdAt": "2020-07-01T09:22:44.7008083+00:00",
    "finishedAt": "2021-04-29T13:19:14.9151364+00:00",
    "state": 3,
    "projectId": 57,
    "performerId": 1
  },
  {
    "id": 118,
    "name": "Alias aperiam placeat velit in ea.",
    "description": "Sit dolor velit culpa omnis et voluptates minus aperiam.\nTemporibus ab harum eum similique aut iste.",
    "createdAt": "2020-07-01T09:28:26.291787+00:00",
    "finishedAt": "2021-02-16T13:47:35.3398236+00:00",
    "state": 3,
    "projectId": 12,
    "performerId": 35
  },
  {
    "id": 119,
    "name": "Beatae sequi hic enim maxime tempora est dolores.",
    "description": "Aliquid laudantium ducimus repellendus tenetur ea quo nesciunt nemo perferendis.\nDolorem natus ullam vitae laborum delectus quis alias perferendis voluptas.\nUt fugit est omnis consequatur vel architecto enim.\nPraesentium minima ut odio qui sit animi et.\nVoluptas nostrum optio voluptatem quo officia voluptas aut.",
    "createdAt": "2020-07-01T08:56:24.0948254+00:00",
    "finishedAt": "2020-10-09T14:36:35.1539095+00:00",
    "state": 1,
    "projectId": 18,
    "performerId": 9
  },
  {
    "id": 120,
    "name": "Itaque et magni.",
    "description": "Laboriosam qui perspiciatis voluptatem eos et et commodi libero ex.\nRem non hic ad.",
    "createdAt": "2020-07-01T06:08:38.8209026+00:00",
    "finishedAt": "2021-05-24T22:16:54.2783782+00:00",
    "state": 3,
    "projectId": 73,
    "performerId": 8
  },
  {
    "id": 121,
    "name": "Laborum voluptatem aut impedit ratione velit qui itaque tempora.",
    "description": "Sunt nulla molestiae odio ullam rerum quia cumque.\nIure ipsa qui labore sit est temporibus minima.\nIn possimus autem perspiciatis inventore sequi labore ducimus voluptas sunt.",
    "createdAt": "2020-07-01T10:02:33.6755977+00:00",
    "finishedAt": "2021-01-12T12:59:23.6603394+00:00",
    "state": 0,
    "projectId": 27,
    "performerId": 12
  },
  {
    "id": 122,
    "name": "Dolorem doloribus illo sequi tempora et.",
    "description": "Sed nam rerum ut quis ducimus enim a iste sint.\nRepellendus enim sed pariatur sit fugit et.\nQuia doloremque aut.\nEst veritatis pariatur.\nEos aliquid corrupti.\nMinima ipsum quia quia dolor illum maxime.",
    "createdAt": "2020-07-01T09:01:55.3232751+00:00",
    "finishedAt": "2020-10-06T10:07:14.3181139+00:00",
    "state": 3,
    "projectId": 3,
    "performerId": 34
  },
  {
    "id": 123,
    "name": "Et ex voluptatem et aspernatur beatae quasi.",
    "description": "Adipisci voluptas hic consequatur sunt.\nVeniam occaecati qui velit.",
    "createdAt": "2020-07-01T09:40:19.9183676+00:00",
    "finishedAt": "2020-07-16T19:21:22.1349628+00:00",
    "state": 1,
    "projectId": 40,
    "performerId": 19
  },
  {
    "id": 124,
    "name": "Vero porro voluptates blanditiis dolores iste provident et asperiores corporis.",
    "description": "Et voluptates voluptatem amet accusantium expedita enim suscipit adipisci dicta.\nTempora fugit non facilis praesentium rerum.\nCulpa ducimus sunt officiis id sit error rerum dolores.\nDolor delectus quis harum ut ab impedit voluptatem.\nSit quis possimus.\nQui neque quia numquam officiis.",
    "createdAt": "2020-06-30T16:49:57.8784715+00:00",
    "finishedAt": "2020-08-19T07:38:23.4806942+00:00",
    "state": 0,
    "projectId": 8,
    "performerId": 32
  },
  {
    "id": 125,
    "name": "Itaque quo nostrum ut distinctio quia non autem dignissimos et.",
    "description": "Quibusdam assumenda quaerat et.\nEum odio laborum in dolorem sequi ea.\nMolestiae delectus eligendi voluptatibus minima delectus officiis excepturi.\nBeatae iusto sit porro.",
    "createdAt": "2020-07-01T02:05:37.9787115+00:00",
    "finishedAt": "2021-02-17T05:24:55.8297698+00:00",
    "state": 3,
    "projectId": 34,
    "performerId": 18
  },
  {
    "id": 126,
    "name": "Adipisci asperiores asperiores dolores numquam qui facere quibusdam perferendis.",
    "description": "Vel molestias veniam debitis fugit non aspernatur labore.\nSoluta porro est eligendi qui aut temporibus nihil.\nUt odit officia quos amet dolor ab.\nArchitecto vitae non harum ea libero esse.\nIllo cum et vitae qui.",
    "createdAt": "2020-07-01T03:19:29.261862+00:00",
    "finishedAt": "2021-05-04T22:24:55.5798858+00:00",
    "state": 2,
    "projectId": 97,
    "performerId": 46
  },
  {
    "id": 127,
    "name": "Soluta sed repudiandae deserunt dolores.",
    "description": "Voluptatem quas eum deserunt at perferendis enim eaque ad quae.\nNisi voluptas quia ex.",
    "createdAt": "2020-06-30T15:57:58.9795533+00:00",
    "finishedAt": "2021-02-16T04:02:10.5915266+00:00",
    "state": 2,
    "projectId": 33,
    "performerId": 29
  },
  {
    "id": 128,
    "name": "Dolor soluta a eius ipsum dolores voluptate doloremque consequatur quia.",
    "description": "Quisquam odio qui repellendus sed.\nEx non magnam tempora.",
    "createdAt": "2020-06-30T20:06:24.5494781+00:00",
    "finishedAt": "2020-10-11T06:42:24.7563135+00:00",
    "state": 2,
    "projectId": 83,
    "performerId": 15
  },
  {
    "id": 129,
    "name": "Ut rem qui dolorem commodi dolore quaerat nesciunt sequi sequi.",
    "description": "Itaque molestias dolorem in rerum rerum ipsam quo.\nDucimus qui mollitia pariatur nihil.\nBlanditiis amet id.",
    "createdAt": "2020-06-30T21:26:07.5388399+00:00",
    "finishedAt": "2021-01-17T22:30:44.0278542+00:00",
    "state": 3,
    "projectId": 66,
    "performerId": 4
  },
  {
    "id": 130,
    "name": "Ullam autem cum voluptas ut explicabo sit sint similique.",
    "description": "Ea aliquid incidunt minus rerum eum at ab.\nEt a dolor voluptatum eum.\nReiciendis quidem at nesciunt perspiciatis nobis laudantium voluptas.\nTemporibus neque soluta esse autem corrupti dolorem consequuntur.\nUt ab quo quas dolor eveniet.\nPerspiciatis omnis explicabo.",
    "createdAt": "2020-06-30T20:00:32.6525812+00:00",
    "finishedAt": "2021-03-23T10:32:27.3338455+00:00",
    "state": 1,
    "projectId": 95,
    "performerId": 3
  },
  {
    "id": 131,
    "name": "Unde unde totam.",
    "description": "Nihil iusto tempore dolor est fugiat.\nMagni omnis et rem praesentium.\nQuasi repellat voluptates consequatur excepturi iure velit atque ex ratione.\nTotam et natus voluptatibus quis.\nVel sapiente ut.\nEum odit aut ipsam quia totam.",
    "createdAt": "2020-07-01T14:01:41.9328122+00:00",
    "finishedAt": "2021-01-15T09:01:58.0394024+00:00",
    "state": 2,
    "projectId": 97,
    "performerId": 29
  },
  {
    "id": 132,
    "name": "Excepturi modi ut est saepe aut illo corporis et iure.",
    "description": "Molestias sequi provident repellat aliquid quis iure.\nCumque ad quis voluptas libero.",
    "createdAt": "2020-07-01T02:39:18.7335551+00:00",
    "finishedAt": "2020-12-12T22:59:08.2078998+00:00",
    "state": 3,
    "projectId": 69,
    "performerId": 41
  },
  {
    "id": 133,
    "name": "Cumque cupiditate quia et beatae dicta illo et.",
    "description": "Provident eos sed.\nConsequatur cumque quam aperiam illum.\nAlias quas adipisci et impedit debitis deleniti odit.\nQuam consequatur iste ut occaecati.\nIncidunt ratione et perspiciatis.\nQuisquam voluptate omnis non voluptas nihil dolores.",
    "createdAt": "2020-06-30T22:37:13.0885941+00:00",
    "finishedAt": "2021-05-28T15:17:01.6268907+00:00",
    "state": 2,
    "projectId": 23,
    "performerId": 37
  },
  {
    "id": 134,
    "name": "Fugiat ut sapiente et.",
    "description": "Cupiditate magnam aut temporibus perferendis aspernatur in.\nAliquid quos non asperiores deserunt maxime voluptatibus.\nConsequatur maxime et voluptate vel exercitationem nesciunt deleniti quaerat.\nEa molestias velit voluptas et voluptate.",
    "createdAt": "2020-06-30T16:18:59.0823941+00:00",
    "finishedAt": "2020-09-12T18:47:06.137152+00:00",
    "state": 3,
    "projectId": 59,
    "performerId": 6
  },
  {
    "id": 135,
    "name": "Aliquid voluptas quos.",
    "description": "Accusamus explicabo praesentium illo.\nSint eius sit in voluptatem omnis tempora explicabo.\nProvident unde eligendi quasi qui excepturi.\nEt eum possimus excepturi voluptatem hic sunt fuga eius.\nVoluptas cupiditate asperiores laborum dolorem.",
    "createdAt": "2020-07-01T11:37:02.3594393+00:00",
    "finishedAt": "2021-06-20T06:49:16.2922309+00:00",
    "state": 2,
    "projectId": 1,
    "performerId": 22
  },
  {
    "id": 136,
    "name": "Sit et sint cumque aut rerum commodi.",
    "description": "Quis eum sunt necessitatibus illo dolorem quaerat quis et.\nCumque perspiciatis quisquam ut magni.",
    "createdAt": "2020-07-01T14:10:06.9205134+00:00",
    "finishedAt": "2020-07-29T06:47:33.3085853+00:00",
    "state": 2,
    "projectId": 31,
    "performerId": 18
  },
  {
    "id": 137,
    "name": "Sit ipsa error reprehenderit nihil quas.",
    "description": "Vel nobis et nesciunt in nihil illo sit incidunt.\nUt nihil unde.\nNemo consequatur quae cupiditate corrupti officiis dolorem sequi nesciunt nemo.\nCorrupti sit aperiam unde placeat quia consequatur pariatur ut.",
    "createdAt": "2020-06-30T22:59:21.8784575+00:00",
    "finishedAt": "2021-05-23T06:15:44.8389268+00:00",
    "state": 3,
    "projectId": 91,
    "performerId": 32
  },
  {
    "id": 138,
    "name": "Quaerat officiis consequatur voluptatem natus et perferendis.",
    "description": "Incidunt provident quaerat consequuntur ea error.\nDistinctio cupiditate consectetur reprehenderit sunt nobis voluptatem dolor atque voluptas.\nVero minima qui nostrum assumenda deleniti magni et quis ut.",
    "createdAt": "2020-07-01T04:10:15.1759463+00:00",
    "finishedAt": "2020-11-23T05:53:59.851541+00:00",
    "state": 1,
    "projectId": 97,
    "performerId": 3
  },
  {
    "id": 139,
    "name": "Voluptas rerum ut consequatur velit nisi eum sunt unde.",
    "description": "Pariatur ipsum ullam id atque quasi.\nInventore provident ut veritatis.\nItaque voluptas omnis.\nLaboriosam adipisci alias eos ut ipsam voluptatem earum consequuntur eius.\nAsperiores temporibus itaque in voluptatibus expedita quibusdam sint enim.",
    "createdAt": "2020-07-01T07:48:53.6870362+00:00",
    "finishedAt": "2020-10-17T19:49:41.0360255+00:00",
    "state": 3,
    "projectId": 71,
    "performerId": 13
  },
  {
    "id": 140,
    "name": "Eos nulla totam neque aut.",
    "description": "Et tempora provident ratione ea.\nVoluptatem corporis nesciunt enim mollitia delectus beatae.",
    "createdAt": "2020-07-01T13:14:12.3986611+00:00",
    "finishedAt": "2021-02-15T01:50:57.3377188+00:00",
    "state": 1,
    "projectId": 78,
    "performerId": 6
  },
  {
    "id": 141,
    "name": "Maxime et aut adipisci quisquam ea et saepe et omnis.",
    "description": "Culpa ex sint veniam minus enim corrupti nobis alias.\nEum neque rem porro dolorum mollitia non.",
    "createdAt": "2020-07-01T12:59:56.1233768+00:00",
    "finishedAt": "2021-06-22T10:41:30.3956621+00:00",
    "state": 0,
    "projectId": 17,
    "performerId": 45
  },
  {
    "id": 142,
    "name": "Quia voluptate dolorem non ut nobis.",
    "description": "Voluptates temporibus officiis.\nQuis voluptatum qui aliquid similique praesentium corporis.\nNostrum nobis quas natus dolores incidunt sit nulla.\nHarum aut ipsa voluptas optio impedit.",
    "createdAt": "2020-07-01T01:11:02.4238839+00:00",
    "finishedAt": "2021-06-13T22:54:16.6807808+00:00",
    "state": 2,
    "projectId": 34,
    "performerId": 41
  },
  {
    "id": 143,
    "name": "Aut optio modi quod assumenda earum incidunt.",
    "description": "Nulla sequi earum itaque sed quia sunt.\nVoluptatem accusantium voluptas dolorum expedita est ad cum.\nEligendi officia voluptas ut incidunt nesciunt quidem sunt quisquam.",
    "createdAt": "2020-07-01T05:05:49.0387684+00:00",
    "finishedAt": "2020-12-16T14:16:34.2634076+00:00",
    "state": 2,
    "projectId": 17,
    "performerId": 25
  },
  {
    "id": 144,
    "name": "Quis natus soluta.",
    "description": "Aut et eum dolores deserunt enim eaque.\nMagni molestias cumque accusamus fuga quo.\nAsperiores nemo pariatur atque porro sed doloribus.",
    "createdAt": "2020-07-01T12:06:01.5621556+00:00",
    "finishedAt": "2021-02-19T10:04:35.9929796+00:00",
    "state": 1,
    "projectId": 80,
    "performerId": 6
  },
  {
    "id": 145,
    "name": "Quo eaque eveniet ipsam sint molestiae corrupti.",
    "description": "Ratione aspernatur molestiae omnis.\nEt voluptate similique sed.",
    "createdAt": "2020-07-01T02:17:21.2143258+00:00",
    "finishedAt": "2021-03-23T20:25:27.6290588+00:00",
    "state": 3,
    "projectId": 16,
    "performerId": 13
  },
  {
    "id": 146,
    "name": "Et reprehenderit ipsam at ad unde aut.",
    "description": "Aspernatur itaque voluptates rerum recusandae rerum et dolor.\nEt deleniti et amet eius ipsum ut beatae.\nCulpa nihil eum dolore.\nCommodi voluptates sit nemo et rem ut natus.\nVeniam est cum velit officia occaecati harum saepe.\nNon reprehenderit dolore quo ut quod ut nobis et architecto.",
    "createdAt": "2020-06-30T22:49:38.8669632+00:00",
    "finishedAt": "2020-12-31T12:32:34.6018658+00:00",
    "state": 3,
    "projectId": 97,
    "performerId": 17
  },
  {
    "id": 147,
    "name": "Error eum illo est saepe voluptate dolorem et eaque perspiciatis.",
    "description": "Sit praesentium ut aut omnis iste sint nobis rem.\nAt esse cupiditate aut dignissimos ipsa.",
    "createdAt": "2020-07-01T07:07:43.2375373+00:00",
    "finishedAt": "2021-03-29T21:59:38.8051872+00:00",
    "state": 3,
    "projectId": 99,
    "performerId": 29
  },
  {
    "id": 148,
    "name": "Delectus enim nostrum.",
    "description": "Similique minima qui.\nRatione sint doloribus ut sint eos repellat eos.",
    "createdAt": "2020-06-30T23:40:45.4787986+00:00",
    "finishedAt": "2021-02-23T21:03:10.1109703+00:00",
    "state": 3,
    "projectId": 92,
    "performerId": 38
  },
  {
    "id": 149,
    "name": "Veritatis sit culpa sunt enim asperiores debitis minus sed.",
    "description": "Porro ab quisquam.\nQuidem quia atque.\nSed quaerat occaecati dignissimos neque enim aliquam quam enim.\nQuos reiciendis unde.",
    "createdAt": "2020-07-01T13:41:58.6952271+00:00",
    "finishedAt": "2020-08-10T01:32:05.4397246+00:00",
    "state": 3,
    "projectId": 23,
    "performerId": 7
  },
  {
    "id": 150,
    "name": "Aut impedit vel perspiciatis sint doloremque blanditiis excepturi inventore nihil.",
    "description": "Ex aut et doloremque quibusdam id quas.\nRatione voluptatibus quod quia id aut et.\nQuas necessitatibus doloribus nihil et et.\nQuos a totam eos dolorum ipsam recusandae ullam deserunt.",
    "createdAt": "2020-07-01T14:15:56.7866248+00:00",
    "finishedAt": "2021-03-01T00:15:59.5833546+00:00",
    "state": 1,
    "projectId": 56,
    "performerId": 13
  },
  {
    "id": 151,
    "name": "Voluptatem ut repudiandae doloribus eos provident adipisci quis facilis.",
    "description": "Est quia cum quisquam architecto nostrum aliquam earum.\nVoluptas laudantium rerum.\nNumquam soluta ratione sit.",
    "createdAt": "2020-07-01T11:29:02.4848569+00:00",
    "finishedAt": "2020-08-23T21:14:35.7545786+00:00",
    "state": 2,
    "projectId": 41,
    "performerId": 12
  },
  {
    "id": 152,
    "name": "Facere id voluptatem.",
    "description": "Quia quia sint ad minus quam consequuntur id.\nCumque asperiores fuga pariatur quia est.\nEius voluptas aut.",
    "createdAt": "2020-07-01T06:26:04.6306153+00:00",
    "finishedAt": "2021-06-29T14:40:20.9349906+00:00",
    "state": 0,
    "projectId": 71,
    "performerId": 27
  },
  {
    "id": 153,
    "name": "Omnis impedit non beatae quis velit aut officiis neque quaerat.",
    "description": "Doloribus totam perspiciatis error consequatur quas incidunt inventore.\nNulla aut enim.\nNeque sed similique occaecati iusto tenetur magni.\nAut fugit exercitationem necessitatibus.\nRepudiandae est maxime doloremque assumenda et.",
    "createdAt": "2020-06-30T23:02:09.9587115+00:00",
    "finishedAt": "2021-03-11T18:27:59.710454+00:00",
    "state": 0,
    "projectId": 45,
    "performerId": 47
  },
  {
    "id": 154,
    "name": "Quia exercitationem minus ipsum dolorem et nam excepturi.",
    "description": "Dolor non quod in deleniti reiciendis ex magnam tempore sed.\nPraesentium enim eaque architecto soluta velit assumenda.\nAut quos ut ut pariatur aliquam.\nPlaceat architecto ea.\nMinima vel ipsum temporibus pariatur natus.",
    "createdAt": "2020-07-01T09:58:29.8537437+00:00",
    "finishedAt": "2020-08-07T05:18:03.6224116+00:00",
    "state": 1,
    "projectId": 23,
    "performerId": 43
  },
  {
    "id": 155,
    "name": "Omnis nostrum occaecati consectetur sint.",
    "description": "Est deserunt totam rerum reiciendis necessitatibus.\nBlanditiis incidunt minima saepe modi.",
    "createdAt": "2020-06-30T15:29:52.8709362+00:00",
    "finishedAt": "2020-10-02T09:17:55.4980319+00:00",
    "state": 3,
    "projectId": 48,
    "performerId": 5
  },
  {
    "id": 156,
    "name": "In laborum quo velit quis recusandae amet beatae harum.",
    "description": "Similique suscipit quo ipsum non fugit odit.\nVero neque in quia ut culpa.\nConsequatur voluptas quas necessitatibus recusandae reprehenderit voluptate id consequuntur.\nAperiam dignissimos ut rerum hic.\nFacere et sit voluptate omnis deleniti quis cumque dolorem repellendus.",
    "createdAt": "2020-06-30T21:18:22.2665367+00:00",
    "finishedAt": "2021-05-04T12:23:57.4033887+00:00",
    "state": 0,
    "projectId": 73,
    "performerId": 48
  },
  {
    "id": 157,
    "name": "Assumenda ducimus quia dolores rerum suscipit dolores vel necessitatibus soluta.",
    "description": "Voluptas dolores libero voluptas rem et ut qui.\nSunt quia dolore cupiditate omnis et est.\nOfficia aut quia velit.\nMaxime molestias beatae et.\nQuo et architecto odit dolore.",
    "createdAt": "2020-07-01T09:11:37.2011489+00:00",
    "finishedAt": "2020-08-29T11:22:30.3814096+00:00",
    "state": 2,
    "projectId": 95,
    "performerId": 39
  },
  {
    "id": 158,
    "name": "Sint maxime occaecati qui doloremque.",
    "description": "Culpa quidem sequi deleniti.\nImpedit placeat nesciunt voluptas id.\nCupiditate voluptatem dignissimos laudantium molestiae exercitationem facere.\nDeserunt incidunt sed.",
    "createdAt": "2020-07-01T01:13:25.313473+00:00",
    "finishedAt": "2020-07-30T15:20:37.821565+00:00",
    "state": 2,
    "projectId": 31,
    "performerId": 7
  },
  {
    "id": 159,
    "name": "Exercitationem aliquid tempora odio tenetur repellat fugiat qui.",
    "description": "Totam explicabo rem rem id praesentium.\nSit qui et at accusamus.\nMagnam quo est et.\nDolorem asperiores vel eum rerum id omnis aliquam porro velit.",
    "createdAt": "2020-07-01T08:52:40.9547053+00:00",
    "finishedAt": "2020-10-17T04:54:06.2643283+00:00",
    "state": 1,
    "projectId": 14,
    "performerId": 19
  },
  {
    "id": 160,
    "name": "Aut ea eos doloremque nulla consequuntur aperiam itaque.",
    "description": "Necessitatibus et eius dolor voluptates corrupti molestias.\nRem qui fugit vitae blanditiis.\nEligendi atque quod molestiae omnis iusto omnis et.\nVeniam aliquam alias eum occaecati id.",
    "createdAt": "2020-06-30T17:09:20.4438015+00:00",
    "finishedAt": "2020-07-09T01:49:48.6836062+00:00",
    "state": 2,
    "projectId": 79,
    "performerId": 8
  },
  {
    "id": 161,
    "name": "Aspernatur velit deserunt atque et nihil voluptatibus quis vitae eligendi.",
    "description": "Repudiandae vel vitae officia rerum reprehenderit delectus totam sunt.\nVoluptatem modi itaque.\nEt distinctio maiores distinctio omnis atque possimus.\nNihil necessitatibus similique ducimus.\nNihil velit facilis totam accusamus sunt dignissimos laboriosam fuga.\nNon quisquam corporis dolores necessitatibus est aut qui.",
    "createdAt": "2020-07-01T12:31:22.0232351+00:00",
    "finishedAt": "2021-04-04T08:42:34.445385+00:00",
    "state": 3,
    "projectId": 3,
    "performerId": 10
  },
  {
    "id": 162,
    "name": "Tempore omnis voluptates veniam porro deserunt fugiat sit.",
    "description": "Dignissimos qui reprehenderit.\nDolores amet veniam repudiandae illo earum voluptatum aliquid.\nDignissimos ducimus corporis nam aliquid qui fugiat molestiae voluptas.\nNecessitatibus sed commodi.",
    "createdAt": "2020-07-01T04:08:19.7369517+00:00",
    "finishedAt": "2021-01-30T23:48:21.1869918+00:00",
    "state": 1,
    "projectId": 26,
    "performerId": 10
  },
  {
    "id": 163,
    "name": "Inventore aut voluptate.",
    "description": "Placeat deleniti quas voluptatem numquam dolore quas.\nEx vitae consectetur impedit magni animi ut quas ducimus dolores.\nEst ea qui distinctio possimus possimus aperiam.",
    "createdAt": "2020-07-01T00:07:00.6456372+00:00",
    "finishedAt": "2020-09-21T00:18:09.5234825+00:00",
    "state": 2,
    "projectId": 53,
    "performerId": 9
  },
  {
    "id": 164,
    "name": "Sit consectetur assumenda molestias aut.",
    "description": "Dolor ratione qui ipsum nam iste.\nNon aut nihil qui.\nEst consequatur rem soluta nihil quia id qui placeat.\nSit dolores dignissimos est hic.",
    "createdAt": "2020-07-01T05:58:20.1093611+00:00",
    "finishedAt": "2020-08-05T02:46:01.5163799+00:00",
    "state": 0,
    "projectId": 99,
    "performerId": 14
  },
  {
    "id": 165,
    "name": "Quis dolorum sit incidunt corrupti ut sit.",
    "description": "Praesentium incidunt debitis voluptas iure non nihil.\nMinima quos illum voluptatem quos maxime harum.\nDelectus voluptatem est necessitatibus id et molestias eligendi recusandae modi.\nError perspiciatis atque sed voluptatem excepturi perferendis commodi occaecati.\nAt placeat incidunt aliquid aliquid illo.",
    "createdAt": "2020-07-01T11:05:37.7862897+00:00",
    "finishedAt": "2020-12-09T00:51:45.5601427+00:00",
    "state": 3,
    "projectId": 81,
    "performerId": 36
  },
  {
    "id": 166,
    "name": "Sed praesentium qui saepe quos exercitationem quaerat sunt illum.",
    "description": "Reprehenderit neque laboriosam vero.\nAutem tenetur iste.\nVoluptatum eum fugit non aut sint quos ut.\nVel voluptatibus voluptatem ipsam quia.\nBeatae adipisci totam et unde impedit doloremque assumenda.",
    "createdAt": "2020-06-30T14:59:26.5598795+00:00",
    "finishedAt": "2021-02-02T13:39:18.5996759+00:00",
    "state": 3,
    "projectId": 85,
    "performerId": 28
  },
  {
    "id": 167,
    "name": "Fuga adipisci quo iusto recusandae enim.",
    "description": "Eius voluptatem est dolor id.\nBeatae a optio dolor eos voluptas corporis consequatur non.\nLaborum ipsam quia est recusandae animi.\nSapiente omnis voluptate.\nSuscipit nam autem nihil autem natus quis.\nDignissimos nemo doloribus veritatis nisi.",
    "createdAt": "2020-07-01T05:38:45.5101711+00:00",
    "finishedAt": "2021-04-26T14:28:28.2211588+00:00",
    "state": 3,
    "projectId": 10,
    "performerId": 3
  },
  {
    "id": 168,
    "name": "Dolorum eos eligendi veniam similique natus est.",
    "description": "Et dolorum numquam voluptas tempora.\nEa maxime exercitationem et architecto.\nAssumenda perferendis cum corrupti eos dolorum.\nVoluptatibus ut nemo voluptate laboriosam.",
    "createdAt": "2020-07-01T08:56:31.3522597+00:00",
    "finishedAt": "2020-07-22T00:58:47.6796372+00:00",
    "state": 3,
    "projectId": 86,
    "performerId": 16
  },
  {
    "id": 169,
    "name": "Mollitia vero cupiditate repellat fuga.",
    "description": "Minus maiores rerum sit nostrum quidem hic neque quaerat.\nNatus a laborum et.\nDoloribus consequuntur numquam debitis ut est consectetur.\nPraesentium est ut nihil id totam nesciunt delectus.",
    "createdAt": "2020-06-30T21:33:53.0179539+00:00",
    "finishedAt": "2020-09-22T11:36:17.9280885+00:00",
    "state": 3,
    "projectId": 71,
    "performerId": 6
  },
  {
    "id": 170,
    "name": "Sequi molestiae rem repudiandae.",
    "description": "Est laborum rerum pariatur quis enim qui.\nUt corporis sequi ut voluptatem sit.\nEarum non nisi optio aut dolorem ullam.\nFacere minima excepturi commodi voluptatem.\nDolor expedita sequi.\nAut id fugit in in.",
    "createdAt": "2020-07-01T00:40:02.3532926+00:00",
    "finishedAt": "2020-12-14T17:58:10.0262932+00:00",
    "state": 1,
    "projectId": 99,
    "performerId": 36
  },
  {
    "id": 171,
    "name": "Perspiciatis quidem aut perspiciatis tempore optio.",
    "description": "Corrupti ut possimus omnis.\nNihil magnam consectetur sunt vero hic.\nIn ipsum est alias tempora quia ducimus.",
    "createdAt": "2020-06-30T22:15:13.6492852+00:00",
    "finishedAt": "2020-12-10T18:36:26.0461734+00:00",
    "state": 1,
    "projectId": 5,
    "performerId": 4
  },
  {
    "id": 172,
    "name": "Tempora id eligendi deleniti dolores harum.",
    "description": "Et est quam qui sed est enim eos quia.\nVel quia nulla.\nQuod facilis cumque.\nVoluptatum repellat officiis et at consequuntur numquam aut est.\nSit qui minima.\nDoloremque quibusdam deleniti.",
    "createdAt": "2020-07-01T07:31:42.1706114+00:00",
    "finishedAt": "2021-05-01T21:13:36.5430626+00:00",
    "state": 1,
    "projectId": 74,
    "performerId": 32
  },
  {
    "id": 173,
    "name": "Exercitationem modi reprehenderit debitis.",
    "description": "Nihil ut sed ea et voluptates nostrum fugiat.\nDolor et aperiam minima cum.\nEst ex quia.\nDeserunt quaerat esse.\nVeritatis asperiores eos.",
    "createdAt": "2020-07-01T06:28:55.4182213+00:00",
    "finishedAt": "2021-04-29T13:41:29.1013584+00:00",
    "state": 1,
    "projectId": 39,
    "performerId": 4
  },
  {
    "id": 174,
    "name": "Accusantium ipsam sit porro et.",
    "description": "Odit necessitatibus amet est non molestiae quaerat ducimus.\nA enim et autem neque omnis doloremque iure consequatur.\nVoluptatum consequatur inventore tempore repellat.\nEt corporis sequi ut necessitatibus sint enim.\nEligendi et neque voluptate est corrupti libero et perspiciatis consequatur.",
    "createdAt": "2020-06-30T20:19:31.7055843+00:00",
    "finishedAt": "2021-04-17T23:03:00.8944679+00:00",
    "state": 0,
    "projectId": 76,
    "performerId": 50
  },
  {
    "id": 175,
    "name": "Qui illo iure ut ullam rerum officia expedita.",
    "description": "Numquam consectetur eaque.\nQuia odit voluptatum.\nEaque alias et soluta explicabo et fuga dolor occaecati culpa.",
    "createdAt": "2020-07-01T01:30:49.2968491+00:00",
    "finishedAt": "2020-10-06T11:36:16.2574211+00:00",
    "state": 3,
    "projectId": 17,
    "performerId": 45
  },
  {
    "id": 176,
    "name": "Deserunt voluptatum asperiores dolorem eius id eos sed ducimus ut.",
    "description": "Rerum eius sunt.\nUnde optio et eaque et accusantium.\nSuscipit fuga aut voluptate eius ut.",
    "createdAt": "2020-06-30T21:10:05.0722384+00:00",
    "finishedAt": "2021-03-21T07:55:20.7625628+00:00",
    "state": 0,
    "projectId": 28,
    "performerId": 44
  },
  {
    "id": 177,
    "name": "Sed repellat fugiat.",
    "description": "Voluptate quia inventore aperiam aut facere perferendis ratione.\nEt omnis sapiente omnis non libero non omnis consequuntur et.",
    "createdAt": "2020-07-01T09:44:13.2961292+00:00",
    "finishedAt": "2020-10-13T12:09:45.0331618+00:00",
    "state": 1,
    "projectId": 26,
    "performerId": 1
  },
  {
    "id": 178,
    "name": "Quis quod accusantium est tempora illo.",
    "description": "Consectetur ab unde non alias perferendis quia non et.\nVoluptatibus soluta enim fugiat officia sunt tempore aut.\nHic excepturi architecto commodi ab omnis.",
    "createdAt": "2020-07-01T01:55:29.0691182+00:00",
    "finishedAt": "2021-06-16T19:05:51.163433+00:00",
    "state": 3,
    "projectId": 72,
    "performerId": 10
  },
  {
    "id": 179,
    "name": "Sed dicta nesciunt.",
    "description": "Et facere fugiat molestias velit ipsa odio.\nAlias minus iusto culpa sint unde esse labore.\nEst dolores distinctio.\nRerum iusto ut saepe dolores molestiae saepe.",
    "createdAt": "2020-07-01T02:33:37.0757177+00:00",
    "finishedAt": "2020-11-30T07:09:56.6976057+00:00",
    "state": 0,
    "projectId": 76,
    "performerId": 25
  },
  {
    "id": 180,
    "name": "Sed perspiciatis et aut facilis minima rem doloremque.",
    "description": "Consequatur aut soluta quis.\nDeserunt ratione impedit.\nConsequatur a mollitia vel sint et recusandae.\nVoluptatem recusandae et.",
    "createdAt": "2020-07-01T09:53:14.0621106+00:00",
    "finishedAt": "2021-03-06T04:21:44.1646749+00:00",
    "state": 3,
    "projectId": 57,
    "performerId": 11
  },
  {
    "id": 181,
    "name": "Necessitatibus dolorum accusamus repudiandae cumque sit provident ea.",
    "description": "Repudiandae enim molestiae enim placeat repellendus quam.\nSed cupiditate ad labore sed unde maxime.\nMaxime hic praesentium necessitatibus similique accusantium corrupti commodi enim tempore.\nQuo voluptatem qui quae quis molestiae ea sit.",
    "createdAt": "2020-07-01T01:22:04.5333954+00:00",
    "finishedAt": "2021-01-09T03:56:45.3613949+00:00",
    "state": 1,
    "projectId": 28,
    "performerId": 2
  },
  {
    "id": 182,
    "name": "Vitae perspiciatis amet omnis.",
    "description": "Animi veritatis animi reiciendis necessitatibus dolor veritatis repellat architecto.\nNihil autem quisquam.\nMaiores consequatur voluptas provident consequatur maiores.",
    "createdAt": "2020-07-01T03:01:29.9228734+00:00",
    "finishedAt": "2020-07-19T15:01:41.6253451+00:00",
    "state": 1,
    "projectId": 100,
    "performerId": 7
  },
  {
    "id": 183,
    "name": "Hic quae ex est occaecati occaecati.",
    "description": "Aut qui ducimus modi eum vel magni a.\nDolorum quibusdam consequatur asperiores rerum vel aut eum tempora.",
    "createdAt": "2020-07-01T07:58:13.9615918+00:00",
    "finishedAt": "2020-11-25T22:34:56.8708241+00:00",
    "state": 1,
    "projectId": 40,
    "performerId": 22
  },
  {
    "id": 184,
    "name": "Dolor eius occaecati quo.",
    "description": "Voluptates ipsa similique eos doloremque omnis voluptatibus laudantium.\nQuae nesciunt quas quis id adipisci.\nSoluta magnam laborum ab reiciendis dolore et qui eveniet molestiae.\nEsse hic id nemo possimus eveniet consequuntur eveniet.\nQuasi tempore pariatur dolorum et delectus omnis repellat velit sit.",
    "createdAt": "2020-06-30T22:59:26.2133445+00:00",
    "finishedAt": "2020-07-27T02:27:37.0004784+00:00",
    "state": 1,
    "projectId": 68,
    "performerId": 23
  },
  {
    "id": 185,
    "name": "Voluptates ullam modi.",
    "description": "Et aut inventore.\nExcepturi distinctio id in id nesciunt voluptas.\nQuo aut ea asperiores.\nPerferendis eligendi dolorum magnam quo eligendi molestiae adipisci et.",
    "createdAt": "2020-06-30T21:56:52.8332468+00:00",
    "finishedAt": "2021-02-28T23:31:08.7461648+00:00",
    "state": 1,
    "projectId": 54,
    "performerId": 12
  },
  {
    "id": 186,
    "name": "Maiores numquam facere quia repudiandae fugiat ex.",
    "description": "Cum qui saepe quaerat quibusdam in architecto.\nReiciendis soluta nihil asperiores totam accusamus soluta ut aut accusamus.\nVelit magni quis beatae quidem dolorem aut.\nEst est impedit necessitatibus in expedita.\nMagni natus et ea qui dolores.",
    "createdAt": "2020-06-30T15:46:22.5850131+00:00",
    "finishedAt": "2020-12-06T03:46:43.9275452+00:00",
    "state": 3,
    "projectId": 73,
    "performerId": 14
  },
  {
    "id": 187,
    "name": "Esse reprehenderit temporibus ratione sequi quia.",
    "description": "Corporis autem quaerat iusto optio adipisci.\nSit enim temporibus consequuntur laboriosam.\nId quia ipsum.",
    "createdAt": "2020-07-01T12:38:03.3118626+00:00",
    "finishedAt": "2021-05-27T07:25:24.3593693+00:00",
    "state": 1,
    "projectId": 27,
    "performerId": 46
  },
  {
    "id": 188,
    "name": "Rerum occaecati molestiae.",
    "description": "Consequatur tempore voluptatem repellat dolorem amet perspiciatis molestiae possimus earum.\nEt rerum delectus adipisci in.\nEt harum sunt veniam nam excepturi unde veniam ratione.",
    "createdAt": "2020-07-01T13:57:49.0393715+00:00",
    "finishedAt": "2021-06-21T17:50:36.1696148+00:00",
    "state": 0,
    "projectId": 99,
    "performerId": 19
  },
  {
    "id": 189,
    "name": "Mollitia ea voluptas est.",
    "description": "Eaque voluptates recusandae.\nOccaecati distinctio qui sint quos quia ea fugit.\nRem voluptate laboriosam aliquam cumque.\nNeque est porro soluta.",
    "createdAt": "2020-07-01T07:40:53.8709178+00:00",
    "finishedAt": "2021-06-25T01:06:37.011414+00:00",
    "state": 3,
    "projectId": 66,
    "performerId": 34
  },
  {
    "id": 190,
    "name": "Unde autem quis dolor impedit cumque facilis temporibus itaque.",
    "description": "Impedit optio laudantium omnis consequatur veritatis doloremque temporibus earum.\nEum amet a omnis aperiam minus officia quo.\nDolore voluptatem incidunt et doloremque.\nSit soluta dolorum.",
    "createdAt": "2020-06-30T15:00:11.1285872+00:00",
    "finishedAt": "2021-03-29T20:06:21.4870917+00:00",
    "state": 0,
    "projectId": 75,
    "performerId": 6
  },
  {
    "id": 191,
    "name": "Consectetur et qui quos ex voluptatem ut a.",
    "description": "Numquam quis aut eos recusandae architecto qui qui enim.\nVoluptatum eveniet iusto facilis tempore vel.\nDelectus reprehenderit ipsam blanditiis voluptate dolore.\nReprehenderit rerum est.",
    "createdAt": "2020-06-30T16:20:58.4058073+00:00",
    "finishedAt": "2021-03-28T02:13:44.8664204+00:00",
    "state": 2,
    "projectId": 90,
    "performerId": 38
  },
  {
    "id": 192,
    "name": "Ut ab autem expedita distinctio.",
    "description": "Enim tempora maxime aliquid exercitationem laudantium.\nSuscipit sapiente ut magni enim consequatur consequuntur rerum.\nDoloribus molestiae dignissimos voluptatem consequatur quae.\nPerspiciatis quia maxime quo quo est quasi sint beatae sed.\nReiciendis quo est deserunt aliquid labore totam dolorem et ratione.\nHic sunt fugiat quisquam.",
    "createdAt": "2020-07-01T03:09:35.0485119+00:00",
    "finishedAt": "2020-09-24T21:44:17.2789311+00:00",
    "state": 0,
    "projectId": 21,
    "performerId": 13
  },
  {
    "id": 193,
    "name": "Et quis debitis ad.",
    "description": "Nobis necessitatibus et.\nOmnis officiis voluptatem.\nDolorem qui architecto.\nAutem rerum et fugiat.\nModi et aut doloribus commodi.",
    "createdAt": "2020-07-01T10:15:17.4921962+00:00",
    "finishedAt": "2021-01-18T23:40:15.3179982+00:00",
    "state": 3,
    "projectId": 45,
    "performerId": 30
  },
  {
    "id": 194,
    "name": "Porro suscipit neque architecto sed.",
    "description": "Deleniti ut porro quia ipsum eius.\nLaborum laudantium quas aut officia eos sit est.\nAut a eveniet accusamus voluptatem quia.\nError omnis ut mollitia qui occaecati vel maiores.",
    "createdAt": "2020-07-01T04:42:16.0202586+00:00",
    "finishedAt": "2021-04-19T15:41:05.6840801+00:00",
    "state": 0,
    "projectId": 44,
    "performerId": 3
  },
  {
    "id": 195,
    "name": "Et veniam vel qui amet eum atque ea est.",
    "description": "Necessitatibus cumque perferendis quaerat qui sit error blanditiis.\nDolorum odio sequi qui voluptatem velit enim fuga nostrum sunt.\nOccaecati cumque officiis.\nVero sed nostrum id et laudantium tempore.\nNihil inventore tempore veritatis rerum suscipit magnam suscipit.\nProvident quis explicabo eveniet consequatur aliquam delectus minus dolor.",
    "createdAt": "2020-07-01T09:54:54.6427097+00:00",
    "finishedAt": "2020-11-16T06:33:35.2973203+00:00",
    "state": 3,
    "projectId": 56,
    "performerId": 42
  },
  {
    "id": 196,
    "name": "Ab at omnis voluptas sunt qui molestiae repellendus dolor.",
    "description": "Omnis voluptatum aliquid eum quis eaque possimus enim.\nVoluptas omnis harum pariatur veniam quia consequatur quia et assumenda.\nLaborum sint corrupti incidunt in.\nFacilis odio doloribus reiciendis itaque ratione aut ad quos quos.\nQui cupiditate et non ut sequi.",
    "createdAt": "2020-07-01T04:06:16.8604807+00:00",
    "finishedAt": "2021-06-12T06:49:31.1215435+00:00",
    "state": 1,
    "projectId": 85,
    "performerId": 6
  },
  {
    "id": 197,
    "name": "Ad id ab beatae commodi earum iusto ut.",
    "description": "Reprehenderit ipsam veniam aut reprehenderit.\nProvident sunt temporibus fugiat fuga qui consequuntur ut.\nQuasi voluptas et sit unde vel voluptatem accusamus dolorem.\nSequi ut nam sequi est et quaerat.\nQuia voluptatum non quaerat qui totam.\nQuia reiciendis ut id velit cumque.",
    "createdAt": "2020-06-30T14:48:40.8775521+00:00",
    "finishedAt": "2020-08-14T16:42:31.1963317+00:00",
    "state": 0,
    "projectId": 12,
    "performerId": 23
  },
  {
    "id": 198,
    "name": "Praesentium sed dolor non.",
    "description": "Quam eos sit commodi ipsam tenetur molestiae dolorum consequatur.\nNeque omnis modi in omnis dolores ut.\nDolores eligendi veritatis odit similique eos voluptatem aut sed.\nAssumenda qui nobis tempora possimus praesentium.\nIn ea fugiat eum nihil pariatur maiores.",
    "createdAt": "2020-07-01T03:36:20.8495474+00:00",
    "finishedAt": "2020-09-27T03:06:10.1947534+00:00",
    "state": 2,
    "projectId": 32,
    "performerId": 15
  },
  {
    "id": 199,
    "name": "Dolores similique non ut ipsum ducimus qui sint culpa.",
    "description": "Et enim similique adipisci quae laboriosam placeat doloremque at libero.\nRecusandae consequatur voluptas voluptas vel qui eos totam autem nulla.\nAccusamus aut recusandae.\nOmnis harum aut blanditiis.\nVitae atque repellendus expedita magnam fugiat quia repellendus ipsa tenetur.",
    "createdAt": "2020-07-01T11:04:00.7833563+00:00",
    "finishedAt": "2021-02-07T10:32:06.1009229+00:00",
    "state": 0,
    "projectId": 96,
    "performerId": 7
  },
  {
    "id": 200,
    "name": "Rerum rerum laudantium quo saepe.",
    "description": "Quaerat ut culpa sed molestiae qui.\nAt qui eius aut officia perspiciatis occaecati aliquid.\nQuo accusantium earum ullam qui libero.\nIpsam ut amet officiis maiores rerum provident nam non vel.",
    "createdAt": "2020-07-01T11:37:12.911718+00:00",
    "finishedAt": "2021-03-23T21:17:55.1453598+00:00",
    "state": 2,
    "projectId": 68,
    "performerId": 45
  }
]
